site,Latitude,Longitude
mag1,11.016944,-74.789167
mag2,10.7266,-74.7171
mag3,10.4573408,-74.814
mag4,10.1849521,-74.9342052
mag5,10.1075,-74.895833
mag6,10.025,-74.798056
mag7,9.7658,-74.7972
mag8,9.5972,-74.7606
mag9,9.2533,-74.7392
mag10,9.1675,-74.7297
mag11,8.9958,-73.9675
mag12,8.8953,-74.1445
mag13,8.8505,-73.8186
mag14,8.2786,-73.7507