system:index,EVI,ch,elevation,ep,gpp,hum,ndvi,rst,sd,slope,tsi,.geo
00000000000000000000,0.24632053723568015,7.786938329737961,23.941455840006018,83.8211312416006,275.23987500990233,0.21851822435667653,0.2492554128963288,0.9905445097498469,0.39245047871417255,1.347471235493269,2.059030132659662,"{""type"":""Polygon"",""coordinates"":[[[-74.78916656185974,11.04844093504205],[-74.79812991766447,11.0471872613965],[-74.80637957582974,11.04352606353769],[-74.81325871614506,11.037748855182615],[-74.81821972477145,11.030315610415132],[-74.820867794909,11.021818115884612],[-74.82099232532624,11.012932833254663],[-74.81858362630814,11.004367033838255],[-74.81383362138955,10.996802499002493],[-74.80712051073043,10.990841267985774],[-74.79897863541697,10.986957746066887],[-74.79005595103932,10.985460975764967],[-74.78106249335731,10.986470063759917],[-74.77271392481416,10.989904711269787],[-74.76567463529906,10.995491598176825],[-74.76050490538363,11.002786115097015],[-74.7576163226919,11.011207721025661],[-74.75723899562144,11.020086122421667],[-74.75940318155186,11.028714607841545],[-74.7639368090551,11.036406299186352],[-74.770479112952,11.042548842947445],[-74.77850931623499,11.046653183153817],[-74.78738808680801,11.048392524454735],[-74.78916656185974,11.04844093504205]]]}"
00000000000000000001,0.15788640135822582,4.5103998723497325,2.3683095556134415,32.39666399947682,109.53281186149407,0.056308364210974744,0.17139702978252114,0.8050386462706529,0.5177191189808235,0.8648570921780606,2.67222145090285,"{""type"":""Polygon"",""coordinates"":[[[-74.717103029735,10.758095488149023],[-74.7260576412986,10.75684181805288],[-74.73429925724865,10.753180629734313],[-74.74117170165054,10.747403433932405],[-74.74612789462223,10.739970200812893],[-74.74877341019905,10.73147271338999],[-74.7488978453274,10.722587431109577],[-74.74649151165062,10.714021625176116],[-74.74174613907743,10.706457078990802],[-74.73503955623697,10.70049583533361],[-74.72690558522473,10.696612303427283],[-74.71799155629672,10.695115528906891],[-74.70900682211116,10.69612461976839],[-74.70066635678566,10.699559276335554],[-74.69363390955935,10.705146175664902],[-74.6884692176629,10.712440704496615],[-74.68558346553071,10.720862318109146],[-74.68520653128964,10.729740720563283],[-74.68736863484315,10.738369200084772],[-74.69189786500164,10.746060880414953],[-74.69843380350696,10.752203411482585],[-74.70645618031143,10.756307741278487],[-74.71532628987883,10.758047077701448],[-74.717103029735,10.758095488149023]]]}"
00000000000000000002,0.16091873713425456,4.200227507972631,2.0344252500904956,33.63813828870724,45.88140955781915,0.05255568669667043,0.13919668888364578,0.4921121429930095,0.7331751809595068,1.5927950051099151,3.7969358953350176,"{""type"":""Polygon"",""coordinates"":[[[-74.81400375472744,10.488837130137748],[-74.82295047748924,10.487583463327114],[-74.83118483811079,10.483922283839506],[-74.83805124198113,10.478145099657489],[-74.8430030909328,10.470711877320008],[-74.84564630248572,10.462214396476368],[-74.84577065221814,10.453329114519569],[-74.84336645282244,10.444763302553605],[-74.83862525938409,10.437198745862508],[-74.83192456529149,10.431237490504547],[-74.8237977244716,10.42735394935323],[-74.81489150316989,10.425857170927962],[-74.80591463797872,10.426866264442923],[-74.79758148224288,10.430300929394068],[-74.79055520738889,10.43588784022225],[-74.78539506053161,10.443182380079943],[-74.78251186232303,10.451604000805073],[-74.7821352830202,10.460482404238618],[-74.78429550854325,10.469110878300167],[-74.78882077209887,10.476802548434568],[-74.79535096830172,10.482945067752432],[-74.80336628444496,10.487049387911846],[-74.81222858031889,10.488788719819519],[-74.81400375472744,10.488837130137748]]]}"
00000000000000000003,0.15546827146139713,3.1698236391407657,8.298091431682401,32.76188178417233,87.36346193690332,0.03824231619183099,0.09671030784163098,0.43544400891415735,0.7619956232905567,1.7247058458204478,4.0897527826948155,"{""type"":""Polygon"",""coordinates"":[[[-74.93420328272411,10.216448483186953],[-74.94314223979484,10.215194819694217],[-74.95136945843942,10.21153364912462],[-74.95822991637563,10.205756476677065],[-74.96317748962723,10.198323265227957],[-74.96581843374364,10.18982579102851],[-74.96594269998768,10.180940509398582],[-74.96354060190681,10.172374691340668],[-74.95880352235108,10.164810124040182],[-74.95210862464323,10.15884885686603],[-74.94398880189796,10.15496530637851],[-74.93509026530079,10.153468524009837],[-74.92612114520271,10.154477620204439],[-74.91779518407935,10.157912293622292],[-74.91077498472643,10.163499216062739],[-74.90561931186271,10.17079376705515],[-74.90273862799826,10.179215394962986],[-74.90236239863721,10.18809379938553],[-74.90452077607209,10.196722267933247],[-74.90904213548517,10.204413927771299],[-74.91556667937095,10.210556435223541],[-74.9235750452027,10.214660745651472],[-74.9324296493375,10.216400072999347],[-74.93420328272411,10.216448483186953]]]}"
00000000000000000004,0.1728759171374092,4.120895554833453,21.971323987301815,31.135517366374497,82.43280629576014,0.05376007700779931,0.09566917284344649,0.4309717910331705,0.7105351266967979,3.4894328483367674,3.821139602372062,"{""type"":""Polygon"",""coordinates"":[[[-74.89583271815921,10.138993897888598],[-74.90476950635825,10.137740235338274],[-74.91299473035151,10.134079067301736],[-74.9198535277164,10.128301898187225],[-74.92479990691196,10.120868689830846],[-74.9274402178776,10.112371217518614],[-74.92756446091279,10.103485935981546],[-74.92516294977027,10.094920116193286],[-74.92042701917013,10.08735554587932],[-74.91373374024074,10.081394275348899],[-74.90561587740649,10.077510722209524],[-74.89671948685888,10.076013938720761],[-74.88775252967211,10.077023035676492],[-74.87942857775353,10.080457711499228],[-74.87241007511768,10.086044637238022],[-74.86725565176886,10.093339191393133],[-74.86437567018514,10.10176082134113],[-74.86399953866142,10.110639226044581],[-74.86615740006543,10.11926769302614],[-74.87067766920005,10.12695934993962],[-74.87720063452649,10.133101854021563],[-74.88520705924377,10.137206161685377],[-74.8940595151638,10.138945487738095],[-74.89583271815921,10.138993897888598]]]}"
00000000000000000005,0.18182277281676382,3.7274122961914644,7.619314874863177,30.115248903216784,97.22407815661566,0.05048204532602257,0.09124058424317023,0.9660014755733227,0.6118958500479946,1.52860389174622,3.178071811872852,"{""type"":""Polygon"",""coordinates"":[[[-74.7980580093603,10.056496069298795],[-74.8069925065769,10.055242407751743],[-74.81521562362884,10.051581242411853],[-74.82207266696072,10.045804076845638],[-74.82701778492253,10.038370871781721],[-74.82965742714917,10.029873401478598],[-74.82978164572266,10.020988120040386],[-74.82738075459591,10.012422298410039],[-74.82264603763615,10.00485772488797],[-74.81595446858134,9.998896450784523],[-74.80783867592484,9.995012894822027],[-74.7989445521517,9.993516110140835],[-74.78997987954841,9.99452520790685],[-74.78165804987111,9.99795988628979],[-74.77464133942885,10.003546815539947],[-74.76948823593354,10.010841373062009],[-74.76660899619587,10.01926300518193],[-74.76623296806866,10.028141410184416],[-74.76839028444788,10.03676987549867],[-74.77290940197202,10.044461529298703],[-74.77943069989871,10.050604029792686],[-74.78743507422915,10.054708334513872],[-74.79628526098817,10.05644765918779],[-74.7980580093603,10.056496069298795]]]}"
00000000000000000006,0.16950614627742266,3.725959898527116,5.331391220336515,26.451155314283614,118.86021927106897,0.10160771301208667,0.149340372956549,0.7378140406425246,0.7004241078053068,1.393352562120225,3.7356673763247663,"{""type"":""Polygon"",""coordinates"":[[[-74.79720186195804,9.797297443264096],[-74.80612928916169,9.796043784865896],[-74.8143459042351,9.79238262798966],[-74.82119753479883,9.786605473560092],[-74.82613876090541,9.779172278829888],[-74.8287763397916,9.770674814832558],[-74.82890048324012,9.761789533704661],[-74.82650150570917,9.753223706292763],[-74.82177053404403,9.745659122701785],[-74.81508424139847,9.73969783738404],[-74.80697483681183,9.735814272560884],[-74.7980877076624,9.73431748413714],[-74.78913008462793,9.73532658444631],[-74.78081480365151,9.738761270864705],[-74.77380362360444,9.74434821113563],[-74.76865459312674,9.751642779225191],[-74.76577764291454,9.760064418161857],[-74.76540193421474,9.768942824102867],[-74.76755756903948,9.777571284184093],[-74.7720731330269,9.78526292821227],[-74.77858928556407,9.791405417445121],[-74.7865873324669,9.795509712930619],[-74.79543051656427,9.797249033277055],[-74.79720186195804,9.797297443264096]]]}"
00000000000000000007,0.2033728402687642,2.8637508985754248,2.6508876779069857,57.49469357926096,129.85475120515963,0.03503657929908791,0.22720981394860199,0.3485315849811026,0.7714568209011632,1.1550036503076786,4.169536482393193,"{""type"":""Polygon"",""coordinates"":[[[-74.76059710141031,9.628694373332253],[-74.76952003369387,9.627440716979667],[-74.77773251505442,9.623779565601746],[-74.78458070450245,9.618002418406974],[-74.78951945655194,9.610569230389967],[-74.79215572395475,9.602071770489156],[-74.79227981994303,9.593186489562882],[-74.78988205920285,9.584620658395085],[-74.78515346867553,9.577056068262939],[-74.7784705303818,9.571094775659926],[-74.77036518671008,9.56721120508051],[-74.76148250398388,9.565714414225438],[-74.75252936229373,9.566723516186757],[-74.74421824432558,9.570158207825324],[-74.73721058006458,9.575745155255797],[-74.73206413903823,9.583039730210428],[-74.72918864458872,9.591461373575504],[-74.72881313925727,9.60033978012619],[-74.73096770532918,9.608968236807806],[-74.73548101036901,9.616659874487784],[-74.74199389180458,9.622802356404963],[-74.74998791598826,9.626906645890607],[-74.7588266479939,9.628645963425749],[-74.76059710141031,9.628694373332253]]]}"
00000000000000000008,0.24433212274155658,3.8515467736678555,5.190164248514548,31.16277509838516,108.56593807182666,0.10647804179281002,0.15738107662863707,0.6006159349715264,0.7063592397868208,1.3315677723989257,3.510991814805673,"{""type"":""Polygon"",""coordinates"":[[[-74.73919787545482,9.284795122787346],[-74.7481118925645,9.283541470600905],[-74.75631617533205,9.279880330420987],[-74.76315754014416,9.27410319796082],[-74.76809138587093,9.266670023616145],[-74.77072505292217,9.258172572058497],[-74.77084905553394,9.24928729154293],[-74.76845370861079,9.24072145272579],[-74.76372984076114,9.233156849271696],[-74.75705355484018,9.227195541831215],[-74.74895626442988,9.223311959528363],[-74.74008239927286,9.22181516372155],[-74.73113814438523,9.2228242690477],[-74.72283528209071,9.226258971317893],[-74.71583459028159,9.231845933329787],[-74.71069328499027,9.239140522266052],[-74.70782067824743,9.247562174650131],[-74.7074455769877,9.256440582442425],[-74.70959802414077,9.26506903220022],[-74.7141068495434,9.272760656951226],[-74.72061324360246,9.278903123969085],[-74.72859928938419,9.283007401235263],[-74.73742919118196,9.284746713044855],[-74.73919787545482,9.284795122787346]]]}"
00000000000000000009,0.2456905948280884,3.461919649149044,3.396621755322155,21.013979031664416,125.79386856236319,0.05619998388723782,0.10397071770406291,0.5117315142211383,0.4846061085794789,1.6015948762044492,2.6830379140140055,"{""type"":""Polygon"",""coordinates"":[[[-74.72969999021099,9.198997559417995],[-74.7386118359147,9.197743908269656],[-74.74681412184461,9.194082770880016],[-74.75365382452178,9.188305642091365],[-74.75858647539953,9.180872471153519],[-74.76121950928002,9.172375021674808],[-74.7613434893113,9.163489741261596],[-74.75894873040093,9.15492390053843],[-74.75422601281099,9.147359293764813],[-74.74755134703011,9.141397982627176],[-74.73945601785668,9.1375143974031],[-74.73058430002796,9.13601760036242],[-74.72164220932511,9.137026706527012],[-74.71334135755069,9.140461411446372],[-74.70634236381784,9.146048377091626],[-74.70120230936821,9.153342969511794],[-74.69833040604188,9.16176462414319],[-74.69795540335248,9.17064303224485],[-74.7001073345948,9.179271480277375],[-74.7046150690817,9.186963101806777],[-74.71111988316162,9.19310556511207],[-74.71910398574633,9.19720983933345],[-74.72793173683715,9.198949149716373],[-74.72969999021099,9.198997559417995]]]}"
0000000000000000000a,0.25290883876450576,4.078899497709175,3.599765804684067,34.09143153066761,140.34046107577294,0.07253615066490793,0.164392484987307,0.48764149081815544,0.696623982759781,1.616020396423506,3.6263093950382266,"{""type"":""Polygon"",""coordinates"":[[[-73.96749692894338,9.02729541425401],[-73.97640449226175,9.026041765181665],[-73.98460284012913,9.022380633372011],[-73.99143926490558,9.01660351192566],[-73.99636955951951,9.0091703478008],[-73.99900134489798,9.00067290247956],[-73.99912528059637,8.991787622271056],[-73.9967316814665,8.983221777736228],[-73.99201123237452,8.975657164324229],[-73.98533976162648,8.969695845792993],[-73.97724830005502,8.965812254727044],[-73.96838081675185,8.964315455218875],[-73.95944299381084,8.965324563060188],[-73.95114610681254,8.968759273277364],[-73.94415046178764,8.974346246188633],[-73.93901287417194,8.98164084557591],[-73.93614235819972,8.990062504701484],[-73.93576755009651,8.99894091342179],[-73.9379184640946,9.007569358004107],[-73.94242404730248,9.01526097309093],[-73.94892574552168,9.02140342897185],[-73.95690601584487,9.025507697104246],[-73.96572952537788,9.027247004634118],[-73.96749692894338,9.02729541425401]]]}"
0000000000000000000b,0.14376675261863467,3.9214212186876134,7.952090061096869,35.154093862251074,174.0170696436823,0.01929046609009966,0.1621416752975872,0.4227933535488893,0.5848880024316562,0.9917942180870086,2.9251301907880127,"{""type"":""Polygon"",""coordinates"":[[[-74.1445009452599,8.926796194711445],[-74.15340604104904,8.925542546853285],[-74.16160211981513,8.921881418307189],[-74.16843665592289,8.916104301155123],[-74.17336559296248,8.90867114101498],[-74.17599665908631,8.900173698125329],[-74.17612056936535,8.89128841803656],[-74.17372763858044,8.882722571272415],[-74.16900849659962,8.875157953977826],[-74.16233886674212,8.869196631122293],[-74.15424963351542,8.8653130366396],[-74.14538458992932,8.863816235688267],[-74.13644922585152,8.864825344510246],[-74.12815462317711,8.868260057825964],[-74.12116090757316,8.873847034986909],[-74.11602474133248,8.88114163844904],[-74.11315502482013,8.889563300203118],[-74.1127803289567,8.898441709285244],[-74.11493065695255,8.907070151849622],[-74.11943500070585,8.914761763168375],[-74.12593490363368,8.920904214707],[-74.13391296582647,8.925008479278137],[-74.14273403135864,8.926747785139353],[-74.1445009452599,8.926796194711445]]]}"
0000000000000000000c,0.1957065454166023,4.027451310726356,3.2481642139601563,34.92853318876363,132.977724098479,0.0655239292459865,0.1417818708642867,0.4264693566165236,0.6846858625855347,2.3813025652607247,3.4176532625987384,"{""type"":""Polygon"",""coordinates"":[[[-73.81860308566776,8.881995606427475],[-73.82750709074745,8.88074195911036],[-73.83570216652086,8.877080832018517],[-73.8425358678074,8.871303716779991],[-73.84746420479316,8.863870558415453],[-73.8500949530218,8.855373116609323],[-73.85021885209517,8.846487836573916],[-73.84782621675336,8.83792198881638],[-73.84310765254648,8.8303573697917],[-73.836438836384,8.824396045009246],[-73.82835058809663,8.82051244900404],[-73.81948662286945,8.819015647409623],[-73.81055234561249,8.820024756668593],[-73.80225875261843,8.82345947136503],[-73.7952658898378,8.82904645041965],[-73.79013035187418,8.836341055697549],[-73.7872609887576,8.844762718622894],[-73.78688634253558,8.853641127866242],[-73.78903641153725,8.862269569531422],[-73.79354020745018,8.86996117917111],[-73.80003931683413,8.876103628774793],[-73.8080164029868,8.88020789175903],[-73.81683638821052,8.881947196876686],[-73.81860308566776,8.881995606427475]]]}"
0000000000000000000d,0.18377598340966692,3.8065893868536147,4.125205184093561,31.515859799019314,133.90318867502404,0.05306875796347857,0.10076128357669029,0.5965596891010826,0.6943798756364649,2.1548610023263195,3.537542389439122,"{""type"":""Polygon"",""coordinates"":[[[-73.75069989482589,8.310093600817774],[-73.75959047695652,8.308839960395984],[-73.76777320964317,8.305178851837844],[-73.77459663805251,8.299401760986543],[-73.77951759192487,8.291968625251275],[-73.78214442975745,8.283471197254315],[-73.78226819258387,8.274585917899085],[-73.77987919413118,8.266020057481352],[-73.77516774027285,8.258455416407413],[-73.76850893660783,8.252494067067117],[-73.76043280715906,8.248610451658053],[-73.75158210978124,8.247113641867818],[-73.74266120444811,8.248122756696052],[-73.7343800345987,8.251557488989267],[-73.72739766561666,8.257144492177973],[-73.72226985928447,8.264439120597034],[-73.71940484607279,8.272860798449567],[-73.71903081233289,8.281739209747503],[-73.72117769581934,8.290367639952654],[-73.72567475127734,8.298059228193353],[-73.73216409589,8.304201653137156],[-73.74012917075497,8.308305895897064],[-73.74893586107595,8.310045191538444],[-73.75069989482589,8.310093600817774]]]}"
