sample,site
SPY221633,N01
SPY221634,N01
SPY221635,N02
SPY221636,N02
SPY221637,N03
SPY221638,N03
SPY221639,N04
SPY221640,N04
SPY221641,N05
SPY221642,N05
SPY221856,N06
SPY221857,N06
SPY221858,N07
SPY221859,N07
SPY221860,N08
SPY221861,N08
SPY221862,N09
SPY221863,N09
SPY221864,N10
SPY221865,N10
SPY221866,N11
SPY221868,N12
SPY221869,N12
SPY221870,N13
SPY221871,N13
SPY221872,N14
SPY221873,N14
SPY221653,N15
SPY221654,N15
SPY221874,N16
SPY221875,N16
SPY221643,N17
SPY221644,N17
SPY221645,N18
SPY221646,N18
SPY221647,N19
SPY221648,N19
SPY221649,N20
SPY221650,N20
SPY221651,N21
SPY221652,N21
SPY221655,N22
SPY221656,N22