﻿sample,site
SPY172820,G93
SPY172816,G96
SPY172813,G140
SPY172811,G142
SPY172807,G109
SPY172827,G113
SPY172839,G27
SPY172806,G28
SPY172831,G78
SPY172823,G79
SPY172873,G80
SPY173485,G23
SPY173439,G24
SPY172900,G25
SPY171448,G26
SPY173018,G54
SPY172808,G84
SPY173486,G11
SPY173447,G13
SPY173444,G14
SPY173483,G16
SPY173488,G17
SPY173437,G18
SPY172841,G68
SPY172856,G77
SPY173431,G2
SPY173479,G3
SPY172898,G12
SPY173476,G15
SPY172902,G4
SPY173470,G6
SPY173430,G7
SPY173440,G8
SPY173438,G9
SPY173436,G5
SPY173466,G10
SPY173460,G52
SPY173467,G58
SPY173459,G60
SPY173472,G66
SPY172858,G110
SPY173462,G59
SPY173464,G61
SPY173474,G62
SPY172897,G63
SPY172851,G90
SPY173452,G53
SPY173453,G55
SPY173473,G65
SPY173495,G57
SPY173493,G64
SPY173497,G67
SPY173458,G56
SPY172847,G155
SPY172850,G156
SPY172840,G157
SPY172836,G158
SPY172843,G160
SPY172837,G161
SPY172868,G126
SPY172821,G93
SPY172825,G96
SPY172822,G140
SPY172833,G142
SPY172818,G109
SPY172828,G113
SPY172867,G27
SPY172817,G28
SPY172832,G78
SPY172883,G79
SPY172875,G80
SPY173487,G23
SPY173434,G24
SPY173448,G25
SPY172901,G26
SPY172895,G54
SPY172812,G84
SPY173484,G11
SPY172899,G13
SPY172896,G14
SPY173480,G16
SPY173442,G17
SPY173489,G18
SPY172842,G68
SPY172863,G77
SPY173478,G2
SPY173477,G3
SPY173481,G12
SPY173482,G15
SPY173471,G4
SPY173449,G6
SPY173445,G7
SPY173475,G8
SPY173435,G9
SPY173441,G5
SPY173443,G10
SPY173461,G52
SPY173454,G58
SPY173446,G60
SPY173457,G66
SPY172862,G110
SPY173468,G59
SPY173463,G61
SPY173469,G62
SPY173433,G63
SPY172852,G90
SPY173451,G53
SPY173455,G55
SPY173456,G65
SPY173496,G57
SPY173491,G64
SPY173498,G67
SPY173499,G56
SPY172854,G155
SPY172855,G156
SPY172844,G157
SPY172848,G158
SPY172882,G160
SPY172859,G161
SPY172879,G126