﻿sample,site
SPY173317,G134
SPY173369,G136
SPY173344,G141
SPY173336,G130
SPY173338,G131
SPY173352,G132
SPY173342,G133
SPY173347,G144
SPY173290,G146
SPY173297,G147
SPY173363,G149
SPY173365,G150
SPY173358,G151
SPY173288,G152
SPY173354,G153
SPY173349,G154
SPY173300,G162
SPY173353,G163
SPY173306,G165
SPY173294,G166
SPY173303,G167
SPY173299,G168
SPY173325,G169
SPY173298,G170
SPY173359,G171
SPY173340,G172
SPY173332,G173
SPY173355,G174
SPY173320,G175
SPY173339,G176
SPY173356,G177
SPY173304,G178
SPY173351,G179
SPY173316,G180
SPY173333,G181
SPY173318,G182
SPY173322,G183
SPY173314,G184
SPY173313,G134
SPY173364,G136
SPY173345,G141
SPY173302,G130
SPY173341,G131
SPY173296,G132
SPY173307,G133
SPY173346,G144
SPY173291,G146
SPY173292,G147
SPY173366,G149
SPY173368,G150
SPY173361,G151
SPY173289,G152
SPY173367,G153
SPY173362,G154
SPY173301,G162
SPY173358,G163
SPY173305,G165
SPY173295,G166
SPY173293,G167
SPY173334,G168
SPY173326,G169
SPY173323,G170
SPY173308,G171
SPY173337,G172
SPY173343,G173
SPY173324,G174
SPY173319,G175
SPY173309,G176
SPY173355,G177
SPY173329,G178
SPY173350,G179
SPY173312,G180
SPY173357,G181
SPY173360,G182
SPY173321,G183
SPY173331,G184