﻿sample,site
SPY222539,mag1
SPY222541,mag1
SPY222574,mag2
SPY222562,mag2
SPY222557,mag3
SPY222565,mag3
SPY222530,mag4
SPY222529,mag4
SPY222559,mag5
SPY222546,mag5
SPY222556,mag6
SPY222569,mag6
SPY222575,mag7
SPY222533,mag7
SPY222580,mag8
SPY222547,mag8
SPY222576,mag9
SPY222528,mag9
SPY222552,mag10
SPY222532,mag10
SPY222584,mag11
SPY222577,mag11
SPY222527,mag12
SPY222538,mag12
SPY222537,mag13
SPY222581,mag13
SPY222542,mag14
SPY222582,mag14