system:index,sum,.geo
00000000000000000000,3923.6705882352935,"{""type"":""Polygon"",""coordinates"":[[[-51.7946882863006,3.960164718463411],[-51.80350659055396,3.9589111299341537],[-51.8116228831183,3.955250160857208],[-51.818391055870684,3.949473253542515],[-51.82327235049238,3.9420402881182595],[-51.82587824722618,3.9335429640567425],[-51.826001381138575,3.9246576898294103],[-51.823632028142896,3.9160917341364185],[-51.81895885488538,3.908526927118872],[-51.81235388034382,3.9025653929499984],[-51.80434285253226,3.8986816315000805],[-51.79556340153007,3.8971847600244645],[-51.78671429899255,3.8981939167694817],[-51.77849985846887,3.9016287815030526],[-51.77157389531399,3.907215966331813],[-51.76648769981808,3.9145107689134124],[-51.7636461596763,3.922932559103679],[-51.763275522790146,3.9318109858559103],[-51.76540536892436,3.940439329804604],[-51.76986623112565,3.9481307569924176],[-51.77630306372528,3.9542729963468],[-51.784203491668805,3.9583770869018466],[-51.79293859646596,3.960116311227031],[-51.7946882863006,3.960164718463411]]]}"
00000000000000000001,3859.2862745098037,"{""type"":""Polygon"",""coordinates"":[[[-51.82142951531812,3.8973181482161436],[-51.830247155521306,3.896064560431182],[-51.83836283809187,3.892403593354821],[-51.84513050428649,3.8866266886726404],[-51.85001143630131,3.8791937256912608],[-51.8526171427443,3.8706964031206277],[-51.85274027279505,3.8618111289669597],[-51.85037110142734,3.85324517190747],[-51.8456982797591,3.84568036250972],[-51.839093798221114,3.8397188256896992],[-51.83108336570902,3.835835062144967],[-51.82230456568709,3.834338189784529],[-51.81345611916902,3.835347347130806],[-51.80524228869978,3.8387822137641083],[-51.79831684194856,3.844369401198291],[-51.79323102836098,3.851664206277995],[-51.79038970479862,3.8600859980795095],[-51.79001910092988,3.8689644250532975],[-51.79214879264826,3.8775927677646758],[-51.79660932418708,3.885284192642395],[-51.80304567557645,3.8914264293348118],[-51.81094551012157,3.8955305177067694],[-51.819679957282005,3.8972697410090675],[-51.82142951531812,3.8973181482161436]]]}"
00000000000000000002,4591.600000000003,"{""type"":""Polygon"",""coordinates"":[[[-51.87682938680613,3.835078015712147],[-51.885646379919734,3.8338244286641854],[-51.893761468095065,3.830163463568813],[-51.900528640718456,3.8243865614933585],[-51.90540921946536,3.816953600930924],[-51.90801474057049,3.8084562798365713],[-51.90813786694267,3.799571005755851],[-51.90576887261398,3.791005047343249],[-51.901096393550056,3.783440235588613],[-51.894492392355545,3.777478696143414],[-51.88648253981412,3.7735949305243857],[-51.87770437398742,3.77209805728779],[-51.86885656657184,3.773107215229438],[-51.86064333044261,3.7765420837438652],[-51.853718386825236,3.7821292737579477],[-51.848632945374455,3.789424081311289],[-51.845791832900396,3.797845874708265],[-51.84542126128546,3.8067243019014367],[-51.84755080262511,3.815352643387619],[-51.852011012028925,3.82304406597787],[-51.858446894553374,3.8291863000343955],[-51.86634615088006,3.8332903862446517],[-51.875079957202885,3.835029608534086],[-51.87682938680613,3.835078015712147]]]}"
00000000000000000003,23048.862745097973,"{""type"":""Polygon"",""coordinates"":[[[-51.63368798366488,4.233494235736483],[-51.64250930062525,4.2322406439688445],[-51.65062836086939,4.228579666187442],[-51.65739883237937,4.2228027474188226],[-51.66228177301542,4.21536977136577],[-51.66488853416732,4.206872440817532],[-51.66501168659568,4.197987166269724],[-51.66264151016873,4.1894212165223195],[-51.65796674173934,4.1818564198609005],[-51.6513595297009,4.175894897226988],[-51.64334579962959,4.172011144891459],[-51.63456339334903,4.170514277265645],[-51.62571131263324,4.171523431394621],[-51.61749410280476,4.174958287862595],[-51.61056579584792,4.180545461355348],[-51.60547786748236,4.187840253067835],[-51.602635345227746,4.196262036247636],[-51.602264559486315,4.205140462035848],[-51.60439510728354,4.213768811367994],[-51.6088574706241,4.221460248606885],[-51.61529648705602,4.227602499543344],[-51.623199607451,4.231706599596897],[-51.6319376958854,4.233445828372612],[-51.63368798366488,4.233494235736483]]]}"
00000000000000000004,8823.117647058847,"{""type"":""Polygon"",""coordinates"":[[[-51.65496235479088,4.1028782476789445],[-51.66378220677111,4.1016246574591095],[-51.67189992114106,4.097963683838047],[-51.67866927472964,4.092186770543888],[-51.68355141478512,4.084753799570918],[-51.68615775538621,4.076256472123035],[-51.686280898617134,4.067371197728392],[-51.68391112248282,4.05880524513926],[-51.679237129744294,4.051240443528079],[-51.67263100588349,4.045278915380982],[-51.66461859011707,4.041395158689193],[-51.65583762125422,4.03989828922335],[-51.64698698909899,4.0409074446026745],[-51.63877112619734,4.044342305021224],[-51.63184395913842,4.049929483932072],[-51.62675687344965,4.057224280839501],[-51.623914828671,4.065646067369992],[-51.623544115130116,4.074524493618969],[-51.62567432151799,4.083152840378076],[-51.6301359547158,4.090844272813008],[-51.636573909096505,4.0969865182137575],[-51.64447572018621,4.10109061372745],[-51.65321235777082,4.1028298403760095],[-51.65496235479088,4.1028782476789445]]]}"
00000000000000000005,9626.862745098037,"{""type"":""Polygon"",""coordinates"":[[[-51.724881059308906,4.039835476985328],[-51.73370022077724,4.038581887512368],[-51.741817300802836,4.0349209158988355],[-51.74858612753577,4.029144005246326],[-51.75346789035573,4.021711036724702],[-51.756074032869016,4.013213710772867],[-51.75619717188945,4.0043284364521385],[-51.75382758450522,3.995762482491762],[-51.74915395737786,3.9881976784921216],[-51.74254834632393,3.982236147684686],[-51.734536549865865,3.978352388890821],[-51.72575625828971,3.9768555185370884],[-51.71690630866854,3.977864674519756],[-51.70869108043847,3.9812995368446225],[-51.70176445054678,3.986886718369924],[-51.69667776202464,3.994181517784125],[-51.69383594236213,4.002603305931455],[-51.69346526297035,4.011481732402767],[-51.69559530857403,4.020110077920272],[-51.700056597743405,4.027801508037099],[-51.70649405161178,4.033943750766645],[-51.71439524560154,4.038047844089673],[-51.72313119933794,4.039787069711797],[-51.724881059308906,4.039835476985328]]]}"
00000000000000000006,5463.772549019607,"{""type"":""Polygon"",""coordinates"":[[[-51.78267992716368,3.9774749487528878],[-51.79149841620188,3.9762213600186067],[-51.79961487851214,3.972560390390574],[-51.8063831922327,3.966783482350721],[-51.81126458777061,3.9593505162535445],[-51.813870537473036,3.9508531917813445],[-51.81399367247505,3.9419679175337197],[-51.81162426894678,3.93340196221715],[-51.806950997851864,3.9258371558552603],[-51.800345886110314,3.919875622416678],[-51.79233469262302,3.915991861543804],[-51.783555060444726,3.9144949903119235],[-51.77470577532831,3.9155041468913145],[-51.766491165021435,3.918939011101582],[-51.759565058152916,3.9245261952126462],[-51.754478756380536,3.9318209971061093],[-51.75163715597857,3.9402427868525374],[-51.751266509918885,3.9491212135437372],[-51.753396399038884,3.9577495578332655],[-51.75785735326804,3.9654409856574238],[-51.76429431978352,3.9715832257450794],[-51.77219491285592,3.9756873169014852],[-51.78093020065365,3.9774265415084376],[-51.78267992716368,3.9774749487528878]]]}"
00000000000000000007,3738.7098039215684,"{""type"":""Polygon"",""coordinates"":[[[-51.924737968524354,3.798196790899095],[-51.93355458314996,3.7969432042878024],[-51.941669323667526,3.793282240366155],[-51.94843620762024,3.7875053398351723],[-51.95331657977487,3.780072380705951],[-51.95592199251862,3.771575060486289],[-51.95604511677942,3.762689786448791],[-51.953676226026204,3.754123827234478],[-51.949003947351976,3.746559014083397],[-51.94240022708173,3.7405974730827922],[-51.934390713710634,3.736713706234754],[-51.92561291875439,3.7352168324790385],[-51.91676548507802,3.7362259907734408],[-51.90855259651968,3.7396608604024277],[-51.90162794715109,3.745248051945089],[-51.89654272335798,3.7525428609640463],[-51.89370173437057,3.760964655306325],[-51.893331181659164,3.76984308262948],[-51.895460635085485,3.7784714233897363],[-51.89992065610905,3.786162844624676],[-51.90635626441668,3.792305077119449],[-51.91425518255007,3.796409162048909],[-51.92298861404284,3.798148383738224],[-51.924737968524354,3.798196790899095]]]}"
00000000000000000008,2338.3450980392154,"{""type"":""Polygon"",""coordinates"":[[[-51.98032066315556,3.7393366569936104],[-51.989136681371704,3.738083071079136],[-51.99725087407498,3.7344221090304734],[-52.00401730318566,3.7286452109640984],[-52.008897349856476,3.721212254121945],[-52.011502591916845,3.712714935298085],[-52.011625712913556,3.70382966132956],[-52.00925698540856,3.6952637008359086],[-52.00458502249845,3.6876988854564363],[-51.99798174484896,3.681737341973773],[-51.989972765839234,3.6778535731645228],[-51.98119555517105,3.6763566985804155],[-51.972348710300835,3.677365857437733],[-51.964136369334675,3.6808007288452886],[-51.95721218357424,3.6863879228272],[-51.95212730274645,3.693682734184935],[-51.94928650837566,3.7021045300356903],[-51.94891598551122,3.710982957566264],[-51.95104530047589,3.7196112971681154],[-51.95550502471689,3.7273027162402967],[-51.961940200963035,3.7334449462428845],[-51.96983858619991,3.7375490291285005],[-51.978571427049005,3.739288249860172],[-51.98032066315556,3.7393366569936104]]]}"
00000000000000000009,2420.2627450980385,"{""type"":""Polygon"",""coordinates"":[[[-51.99260994565885,3.652303922632453],[-52.001425099196524,3.6510503377481522],[-52.00953849770656,3.647389378468494],[-52.01630426746668,3.6416124840457753],[-52.02118384238078,3.6341795305848072],[-52.023788837140884,3.625682213824492],[-52.02391195354885,3.6167969399579443],[-52.02154346280736,3.608230977572933],[-52.016871957685794,3.600666158899021],[-52.01026932163477,3.594704611746896],[-52.002261117134616,3.590820840038202],[-51.99348475330206,3.589323964229405],[-51.984638761812406,3.59033312391893],[-51.97642721452296,3.5937679979559176],[-51.969503700768236,3.599355195544001],[-51.96441931714469,3.6066500103593673],[-51.96157880499942,3.615071808440242],[-51.961208325542835,3.6239502362774547],[-51.96333743992325,3.632578574166726],[-51.96779673402632,3.640269990041498],[-51.97423128395982,3.6464122163596606],[-51.98212889664036,3.650516296223672],[-51.99086088117417,3.6522555155395726],[-51.99260994565885,3.652303922632453]]]}"
0000000000000000000a,1284.1019607843132,"{""type"":""Polygon"",""coordinates"":[[[-52.04698868300563,3.57455503666457],[-52.05580308144227,3.573301452700382],[-52.06391578643673,3.5696404958939025],[-52.07068098048823,3.5638636047255736],[-52.07556014356531,3.5564306542845694],[-52.07816492252683,3.547933339367347],[-52.07828803507528,3.5390480655918863],[-52.07591975118072,3.530482101517579],[-52.07124864582522,3.522917279901185],[-52.0646465699459,3.516955729471618],[-52.05663904158728,3.5130719551732343],[-52.047863416997096,3.511575078270583],[-52.0390181704597,3.5125842387034107],[-52.03080731603461,3.51601911508892],[-52.02388438898433,3.52160631589792],[-52.01880043952618,3.528901133801526],[-52.01596017391209,3.5373229338742624],[-52.01558973250189,3.546201361985353],[-52.017718671880296,3.554829698344999],[-52.02217759049871,3.562521111363953],[-52.028611593585545,3.5686633343913114],[-52.03650853165474,3.5727674115565304],[-52.045239768394936,3.574506629607913],[-52.04698868300563,3.57455503666457]]]}"
0000000000000000000b,2119.9098039215687,"{""type"":""Polygon"",""coordinates"":[[[-52.09540114314288,3.493658025352955],[-52.104214773267785,3.492404442345972],[-52.11232677264677,3.4887434881123673],[-52.11909138100445,3.48296660032962],[-52.12397012517841,3.475533653030321],[-52.126574684732134,3.467036340030495],[-52.12669779350495,3.4581510663498],[-52.12432972016592,3.4495851005180995],[-52.119659021561645,3.4420202758406053],[-52.11305751553199,3.436058722001472],[-52.105050674921515,3.4321749450089984],[-52.09627580222312,3.430678066968396],[-52.087431313381536,3.431687228174491],[-52.07922116370423,3.4351221070032008],[-52.07229883347899,3.440709311162962],[-52.0672153257513,3.448004132279303],[-52.06437531105432,3.4564259344241974],[-52.06400490849902,3.465304362820199],[-52.06613366998072,3.473932697588553],[-52.07059220669232,3.4816241076365606],[-52.077025653463345,3.4877663272404575],[-52.08492190516153,3.4918704015980917],[-52.09365238102939,3.493609618333982],[-52.09540114314288,3.493658025352955]]]}"
0000000000000000000c,1933.6313725490195,"{""type"":""Polygon"",""coordinates"":[[[-52.12796149903515,3.4466055910369953],[-52.13677469042634,3.4453520085866773],[-52.144886286889445,3.4416910558493403],[-52.151650560836565,3.4359141700354923],[-52.15652906586845,3.428481224563268],[-52.15913350021218,3.419983912678517],[-52.1592566069016,3.411098639052933],[-52.156888653840404,3.4025326721992153],[-52.15221818750149,3.3949678457415233],[-52.145617006817844,3.389006289919539],[-52.137610558829515,3.385122511360302],[-52.12883611535232,3.3836256326579166],[-52.11999205904347,3.384634794313711],[-52.111782311688174,3.3880696745632775],[-52.104860322202484,3.393656880671691],[-52.09977706670407,3.4009517036564145],[-52.09693719532473,3.40937350700638],[-52.09656681502552,3.418251935568073],[-52.098695475001904,3.426880269411],[-52.10315379370148,3.4345716777312396],[-52.109586922843164,3.440713895344206],[-52.117482782619305,3.4448179680690765],[-52.126212824003616,3.4465571840399365],[-52.12796149903515,3.4466055910369953]]]}"
0000000000000000000d,2552.7921568627457,"{""type"":""Polygon"",""coordinates"":[[[-52.19512002000109,3.344973759826856],[-52.20393228416983,3.3437201785787325],[-52.21204302914902,3.340059229072786],[-52.218806596457576,3.3342823475110444],[-52.223684596255794,3.326849405984639],[-52.226288766183856,3.318352096508046],[-52.226411868655866,3.3094668230014928],[-52.224044169900644,3.300900853940591],[-52.21937419442185,3.2933360236383193],[-52.21277370117628,3.2873744635340927],[-52.20476808268484,3.2834906815912137],[-52.19599454597818,3.2819938014596177],[-52.18715140343142,3.2830029640865974],[-52.17894250605344,3.2864378474047027],[-52.172021236512165,3.2920250577215033],[-52.16693851403884,3.2993198847412533],[-52.16409894563711,3.307741690693732],[-52.16372861254932,3.3166201196132477],[-52.165857058208566,3.3252484514575866],[-52.170314916340594,3.3329398560464707],[-52.176747374322844,3.3390820693597525],[-52.184642405861204,3.343186138558451],[-52.193371529010456,3.3449253528771266],[-52.19512002000109,3.344973759826856]]]}"
0000000000000000000e,2361.309803921568,"{""type"":""Polygon"",""coordinates"":[[[-52.26644334135096,3.2921646260508965],[-52.275255134746025,3.29091104542735],[-52.28336544742842,3.2872500976002073],[-52.29012865601804,3.2814732182475645],[-52.29500639939079,3.274040278771133],[-52.29761043518097,3.265542970545654],[-52.297733535614114,3.2566576971009433],[-52.29536596603702,3.2480917268933447],[-52.29069623977399,3.240526894593697],[-52.28409609547487,3.234565332264713],[-52.276090897988766,3.230681548563926],[-52.26731782147983,3.2291846676898097],[-52.25847514267669,3.230193830821351],[-52.250266676691794,3.2336287157336576],[-52.24334577258663,3.2392159282368462],[-52.23826332072245,3.246510757352916],[-52.23542390619916,3.254932564657478],[-52.23505359717844,3.2638109937628905],[-52.237181934136586,3.272439324568898],[-52.24163955852662,3.2801307272192295],[-52.24807167581105,3.2862729382986933],[-52.25596628686168,3.29037700566544],[-52.264694943803185,3.2921162191257554],[-52.26644334135096,3.2921646260508965]]]}"
0000000000000000000f,2715.780392156863,"{""type"":""Polygon"",""coordinates"":[[[-52.29388019013281,3.2477341431543625],[-52.30269159328364,3.246480563056246],[-52.310801547629154,3.2428196166414125],[-52.317564458893344,3.2370427391471934],[-52.32244198975518,3.229609801395323],[-52.32504591441378,3.221112494222356],[-52.32516901321233,3.212227220829674],[-52.322801550749375,3.203661249657407],[-52.3181320310686,3.1960964156774474],[-52.31153217598108,3.190134851476864],[-52.30352732740247,3.1862510662972197],[-52.29475463226681,3.1847541847984497],[-52.28591233777419,3.185763348354459],[-52.27770422930186,3.189198234607904],[-52.270783628069374,3.194785448950413],[-52.26570140051329,3.2020802798300316],[-52.262862113573036,3.210502088272045],[-52.26249182455495,3.219380517533843],[-52.264620071467384,3.228008847466344],[-52.26907750215271,3.2357002484858484],[-52.27550933705427,3.241842457686093],[-52.283403599560536,3.245946523511694],[-52.292131870044216,3.2476857362499074],[-52.29388019013281,3.2477341431543625]]]}"
00000000000000000010,2007.7803921568627,"{""type"":""Polygon"",""coordinates"":[[[-52.35196889955605,3.201916879830206],[-52.360779905867155,3.200663300273871],[-52.36888949583144,3.1970023553152984],[-52.37565210477614,3.1912254797373376],[-52.380529419584974,3.1837925437636985],[-52.383133231292994,3.175295237676001],[-52.383256328483284,3.1664099643369674],[-52.38088897497675,3.157843992170012],[-52.37621966536651,3.1502791564574477],[-52.36962010433493,3.1443175903270193],[-52.36161561048131,3.1404338036224915],[-52.35284330306339,3.138936921479629],[-52.34400139927331,3.1399460854733166],[-52.33579365427087,3.1433809731096383],[-52.328873360978584,3.1489681893487096],[-52.323791361510644,3.1562630220467613],[-52.320952204335654,3.164684831661624],[-52.32058193570915,3.1735632610846736],[-52.32271009111355,3.1821915901164814],[-52.327167324872754,3.1898829894544045],[-52.33359887265386,3.1960251967169477],[-52.34149278074032,3.200129260953441],[-52.35022065823616,3.2018684729470794],[-52.35196889955605,3.201916879830206]]]}"
00000000000000000011,1757.349019607843,"{""type"":""Polygon"",""coordinates"":[[[-52.34090141074139,3.1232271235400457],[-52.34971174872195,3.121973544914093],[-52.35782072504865,3.1183126024563013],[-52.36458282492184,3.1125357301690615],[-52.36945977598797,3.105102797249112],[-52.37206339761459,3.0966054930251126],[-52.37218649222592,3.0877202197782116],[-52.36981932229324,3.0791542459031156],[-52.365150366461954,3.071589407215214],[-52.35855130055466,3.065627837770729],[-52.35054740391417,3.061744048447573],[-52.341775749221206,3.060247165198633],[-52.332934503177974,3.061256329943929],[-52.32472737010277,3.064691219955018],[-52.31780759529922,3.0702784394509886],[-52.312725979935514,3.077573275271768],[-52.30988704136468,3.08599508690072],[-52.30951680720264,3.0948735166006762],[-52.31164480863833,3.1035018440857534],[-52.31610171087382,3.111193240535959],[-52.322532775190105,3.1173354444709593],[-52.330426086423444,3.121439505978539],[-52.339153302079374,3.1231787166935483],[-52.34090141074139,3.1232271235400457]]]}"
00000000000000000012,1166.9803921568628,"{""type"":""Polygon"",""coordinates"":[[[-52.36498947463212,3.035387291888215],[-52.373799086314015,3.0341337143006633],[-52.3819073958223,3.030472774634003],[-52.38866894258271,3.0246959060195513],[-52.39354549853793,3.0172629765078436],[-52.396148913813036,3.00876567436393],[-52.39627200581904,2.999880401219865],[-52.39390503549959,2.9913144254383095],[-52.389236464120955,2.9837495834296184],[-52.382637936123395,2.9777880102862957],[-52.374634688205475,2.9739042180404716],[-52.36586374248207,2.9724073335570287],[-52.357023210858394,2.9734164991412015],[-52.34881674247556,2.9768513918027844],[-52.34189753094459,2.9824386149338014],[-52.33681633296055,2.989733454239873],[-52.33397763204954,2.9981552681167574],[-52.333607435527504,3.007033698125764],[-52.33573526985758,3.015662023884522],[-52.3401918120061,3.02335341711173],[-52.34662235105174,3.0294956173328424],[-52.354515013719364,3.033599675794672],[-52.36324151013562,3.035338885082598],[-52.36498947463212,3.035387291888215]]]}"
00000000000000000013,1497.9882352941174,"{""type"":""Polygon"",""coordinates"":[[[-52.402642123927414,2.929577282990999],[-52.41145088837222,2.9283237066540613],[-52.419558420090475,2.9246627703489376],[-52.42631932180059,2.9188859061578616],[-52.431195417114566,2.9114529807509246],[-52.433798591989635,2.9029556811122004],[-52.43392168124041,2.894070408091996],[-52.43155494394076,2.885504430014372],[-52.426886821014634,2.8779395840062367],[-52.42028892026644,2.871978006408158],[-52.41228642867441,2.8680942106423672],[-52.40351630944121,2.8665973246721297],[-52.3946766106544,2.8676064912666184],[-52.38647091719693,2.8710413871203686],[-52.37955236246093,2.8766286146293147],[-52.37447165129814,2.883923458132955],[-52.371633227756966,2.8923452747171643],[-52.37126307541049,2.9012237050983734],[-52.373390715122824,2.909852028778007],[-52.37784683750087,2.9175434181235427],[-52.38427676399525,2.9236856138717817],[-52.392168670182706,2.927789668665417],[-52.40089432760407,2.9295288762346168],[-52.402642123927414,2.929577282990999]]]}"
00000000000000000014,1136.1803921568626,"{""type"":""Polygon"",""coordinates"":[[[-52.44480738348878,2.8805450078073074],[-52.45361576556495,2.8792914320498215],[-52.46172294628083,2.8756304973022164],[-52.46848355693416,2.8698536351606454],[-52.473359444454786,2.8624207116555938],[-52.47596251095365,2.853923413177615],[-52.476085599069584,2.8450381402148026],[-52.47371896699906,2.8364721610733317],[-52.46905104645877,2.8289073132121123],[-52.4624534287082,2.822945733549985],[-52.45445127829564,2.8190619361532683],[-52.44568153186411,2.8175650494941444],[-52.436842208739144,2.818574216556749],[-52.42863686484402,2.822009113889546],[-52.42171860642446,2.827596343426943],[-52.41663811494807,2.834891188875465],[-52.4137998166396,2.8433130067140726],[-52.41342968433263,2.8521914372677326],[-52.415557236331395,2.8608197599840306],[-52.420013169367316,2.868511147531051],[-52.42644281948009,2.8746533412068502],[-52.434334384289386,2.8787573943008837],[-52.443059663064886,2.8804966010737374],[-52.44480738348878,2.8805450078073074]]]}"
00000000000000000015,1014.035294117647,"{""type"":""Polygon"",""coordinates"":[[[-52.486406337216394,2.811455696085217],[-52.49521419151676,2.8102021211441297],[-52.503320887777484,2.8065411885909297],[-52.51008109675985,2.800764329336933],[-52.51495669757768,2.793331408511474],[-52.51755961461866,2.784834111668888],[-52.5176827012881,2.775948838786939],[-52.515316214534316,2.767382858146602],[-52.510648573336134,2.7598180076745487],[-52.50405134610459,2.7538564251043547],[-52.496049666438886,2.7499726254098005],[-52.487280434353245,2.748475737780095],[-52.47844162951748,2.749484905502235],[-52.47023676792746,2.7529198049188826],[-52.463318918393504,2.7585070373141933],[-52.4582387301215,2.765801885502885],[-52.45540060472687,2.7742237051088288],[-52.4550305001932,2.7831021359054557],[-52.45715793125493,2.791730457264495],[-52.461613603062176,2.7994218422775603],[-52.468042871768624,2.8055640330334723],[-52.47593396541441,2.8096680837329155],[-52.48465872155588,2.8114072893837876],[-52.486406337216394,2.811455696085217]]]}"
00000000000000000016,1025.286274509804,"{""type"":""Polygon"",""coordinates"":[[[-52.50530846658195,2.738776808015103],[-52.51411577957452,2.737523233932725],[-52.52222197899285,2.733862303687663],[-52.528981776094334,2.7280854474709],[-52.53385708300038,2.7206525294639152],[-52.536459846921154,2.7121552343414854],[-52.53658293226153,2.7032699615445948],[-52.53421659464196,2.6947039793277097],[-52.52954923993908,2.6871391261095052],[-52.52295241311442,2.6811775404805194],[-52.51495121603804,2.67729373836903],[-52.50618251119626,2.675796849718438],[-52.49734423764289,2.676806018134297],[-52.489139870480706,2.680240919742802],[-52.48222244016911,2.6858281551441534],[-52.47714256284413,2.693123006215036],[-52.4743046148711,2.701544827679913],[-52.473934538968685,2.7104232587320936],[-52.476061846163084,2.719051578663526],[-52.480517250193934,2.7267429610113023],[-52.48694612781504,2.7328851486959933],[-52.49483673826059,2.7369891968767384],[-52.50356095837209,2.7387284013474797],[-52.50530846658195,2.738776808015103]]]}"
00000000000000000017,1120.8980392156866,"{""type"":""Polygon"",""coordinates"":[[[-52.52582924962991,2.698346138763509],[-52.5346362676602,2.697092565158779],[-52.54274219636128,2.693431636197594],[-52.54950176906651,2.6876547816702594],[-52.55437691588267,2.680221865231022],[-52.55697959644447,2.671724571065413],[-52.55710268113098,2.662839298315838],[-52.55473642481735,2.654273315222015],[-52.55006922622357,2.646708460476292],[-52.54347261752644,2.6407468731458854],[-52.535471683312764,2.636863069689999],[-52.526703265637835,2.6353661804715482],[-52.51786528144926,2.636375349273283],[-52.509661183593344,2.6398102521009865],[-52.50274398165193,2.6453974891744174],[-52.497664273749784,2.6526923418484882],[-52.494826422488806,2.661114164347377],[-52.49445636225415,2.669992595541706],[-52.49658360203,2.6786209146790445],[-52.50103886021602,2.686312295544281],[-52.50746752477767,2.692454481520637],[-52.51535787194407,2.696558528300384],[-52.52408179997116,2.6982977321146904],[-52.52582924962991,2.698346138763509]]]}"
00000000000000000018,713.3803921568629,"{""type"":""Polygon"",""coordinates"":[[[-52.54309042980779,2.591934151224076],[-52.55189669255997,2.590680578876347],[-52.560001928118574,2.587019653293873],[-52.56676092637757,2.5812428032125214],[-52.57163566349429,2.573809890899047],[-52.57423813087721,2.56531259925146],[-52.57436121413481,2.5564273266264075],[-52.57199516615802,2.5478613412247966],[-52.567328367281604,2.540296482459182],[-52.560732316921786,2.534334890651224],[-52.55273205543132,2.530451083657354],[-52.54396437261354,2.528954192944495],[-52.53512712890084,2.5299633627617184],[-52.52692372024197,2.533398268797932],[-52.52000710283012,2.538985510271695],[-52.51492782870088,2.5462803671647984],[-52.512090225198,2.554702192384839],[-52.51172020531372,2.563580623953244],[-52.51384727272886,2.572208941000802],[-52.51830215770409,2.579900317964511],[-52.52473027686634,2.5860424994451296],[-52.53261994995168,2.5901465425379433],[-52.5413431300764,2.591885744624744],[-52.54309042980779,2.591934151224076]]]}"
00000000000000000019,443.85882352941184,"{""type"":""Polygon"",""coordinates"":[[[-52.58137181235163,2.5328956532764537],[-52.59017766922345,2.53164208162603],[-52.59828253232762,2.5279811579178544],[-52.60504122197444,2.5222043103028584],[-52.60991573906689,2.514771400278106],[-52.61251809206236,2.5062741100273644],[-52.612641174709736,2.497388837471394],[-52.61027523878494,2.4888228507895667],[-52.60560865470418,2.481257989793964],[-52.59901290426285,2.475296395502135],[-52.59101300405646,2.4714125865456054],[-52.582245715849396,2.46991569500374],[-52.573408869760854,2.470924865384295],[-52.565205831222556,2.4743597732003946],[-52.55828952778222,2.479947017115194],[-52.55321048672698,2.4872418763487567],[-52.55037301644313,2.495663703078322],[-52.55000301839164,2.504542134854239],[-52.55212999335545,2.5131704507425114],[-52.55658467792339,2.5208618255418913],[-52.56301250409456,2.5270040045285533],[-52.57090181497884,2.5311080455760853],[-52.579624593191156,2.532847246704574],[-52.58137181235163,2.5328956532764537]]]}"
0000000000000000001a,555.1529411764706,"{""type"":""Polygon"",""coordinates"":[[[-52.643839359009355,2.466374783761148],[-52.652644769806585,2.465121212896328],[-52.660749223602934,2.4614602912997903],[-52.667507574155806,2.4556834464634627],[-52.67238184956289,2.4482505390172493],[-52.67498407699602,2.4397532503402393],[-52.67510715911194,2.4308679778621007],[-52.67274134641814,2.422301989737947],[-52.66807499839603,2.414737126229975],[-52.66147957746152,2.408775529139742],[-52.65348007411231,2.404891717972021],[-52.64471321933319,2.4033948254961714],[-52.63587680997918,2.404403996511393],[-52.62767417799518,2.407838906332767],[-52.6207582194865,2.41342615299771],[-52.615679434558224,2.420721014868104],[-52.61284211075295,2.429142843298343],[-52.61247213682773,2.438021275308044],[-52.614599010338345,2.446649589890228],[-52.619053474787904,2.4543409622512122],[-52.62548097904337,2.4604831384281103],[-52.633369891897296,2.464587177171369],[-52.642092228399775,2.4663263772201955],[-52.643839359009355,2.466374783761148]]]}"
0000000000000000001b,382.3058823529411,"{""type"":""Polygon"",""coordinates"":[[[-52.67615000524262,2.40162417736406],[-52.68495499327814,2.4003706072638624],[-52.69305905919001,2.396709687722565],[-52.69981708845419,2.3909328455906933],[-52.70469113494039,2.3834999406541555],[-52.70729324353281,2.375002653508849],[-52.707416325290275,2.366117381106468],[-52.705050629473234,2.357551391578512],[-52.7003845051643,2.3499865256252668],[-52.693789396398444,2.3440249258113655],[-52.68579026895214,2.3401411124915055],[-52.677023824676795,2.3386442191066146],[-52.6681878289548,2.3396533907395534],[-52.65998558204892,2.343088302512649],[-52.653069950306865,2.348675551854289],[-52.64799140809026,2.3559704162910924],[-52.6451542231781,2.3643922463765823],[-52.64478427225533,2.373270678613821],[-52.6469110497751,2.3818989919247966],[-52.65136530575124,2.389590361912505],[-52.657792505009134,2.395732535354681],[-52.6656810406758,2.399836571855209],[-52.67440295855717,2.40157577085321],[-52.67615000524262,2.40162417736406]]]}"
0000000000000000001c,274.078431372549,"{""type"":""Polygon"",""coordinates"":[[[-52.784350092304486,2.3415065769615038],[-52.793154697930134,2.340253007571153],[-52.801258413009435,2.336592089937866],[-52.80801615172708,2.330815250316715],[-52.81288999126351,2.323382347710071],[-52.815491992503034,2.314885061986747],[-52.815615074067985,2.305999789654699],[-52.81324948405008,2.297433798823503],[-52.80858356209361,2.2898689306001554],[-52.80198873559395,2.283907328257695],[-52.79398994797751,2.2800235129398625],[-52.785223874777124,2.278526618711049],[-52.776388252954725,2.2795357909174565],[-52.76818635416446,2.282970704502462],[-52.76127101787447,2.288557956329056],[-52.75619269517637,2.295852823148422],[-52.75335563596356,2.304274654770586],[-52.75298570597201,2.3131530872190598],[-52.75511239680842,2.3217813993498875],[-52.75956646433751,2.3294727671343303],[-52.76599338779465,2.3356149380376876],[-52.773881582313216,2.3397189724561467],[-52.78260312153372,2.341458170478599],[-52.784350092304486,2.3415065769615038]]]}"
0000000000000000001d,345.47450980392153,"{""type"":""Polygon"",""coordinates"":[[[-52.83414041466727,2.3242766104909873],[-52.84294491248581,2.3230230413040713],[-52.851048528665416,2.319362124217599],[-52.8578061854874,2.3135852853159906],[-52.86267996670363,2.3061523833770687],[-52.86528193770512,2.297655098061268],[-52.86540501923979,2.2887698257493767],[-52.8630394590625,2.2802038345446882],[-52.85837359415082,2.272638965670754],[-52.85177884720685,2.266677362603638],[-52.84378015535827,2.262793546713209],[-52.8350141867245,2.2612966522425366],[-52.82617867026412,2.262305824613293],[-52.81797686957508,2.2657407387175725],[-52.81106161655466,2.2713279912563262],[-52.80598335573725,2.2786228587585073],[-52.80314633197251,2.287044690821065],[-52.80277640790445,2.2959231233300756],[-52.80490307433001,2.3045514351226863],[-52.80935708875634,2.3122428022756982],[-52.81578393447665,2.318384972451459],[-52.82367203282722,2.3224890062732206],[-52.832393465298175,2.3242282040160926],[-52.83414041466727,2.3242766104909873]]]}"
0000000000000000001e,336.8941176470588,"{""type"":""Polygon"",""coordinates"":[[[-52.86455148385176,2.3097176455514865],[-52.87335589119821,2.3084640765364646],[-52.881459424382726,2.3048031599120278],[-52.88821701248246,2.299026321618406],[-52.89309074476396,2.2915934202436814],[-52.895692690398896,2.2830961352722228],[-52.89581577191664,2.2742108629773643],[-52.893450236786705,2.2656448714570887],[-52.88878441974671,2.2580800020334357],[-52.882189739559315,2.2521183983540127],[-52.87419112806696,2.2482345819797636],[-52.86542524716998,2.246737687304729],[-52.85658981911356,2.2477468598143546],[-52.84838810073806,2.251181774357399],[-52.84147291758968,2.2567690274978998],[-52.83639470870104,2.264063895577033],[-52.833557714688524,2.272485728011706],[-52.833187795599486,2.2813641605718673],[-52.8353144415487,2.2899924720786977],[-52.83976841141925,2.297683838698175],[-52.84619519190804,2.303826008259146],[-52.85408320955649,2.3079300415767223],[-52.862804552443095,2.3096692390833593],[-52.86455148385176,2.3097176455514865]]]}"
0000000000000000001f,370.8078431372549,"{""type"":""Polygon"",""coordinates"":[[[-52.8550000893953,2.3082149284964766],[-52.86380448743605,2.3069613594991965],[-52.871908012084035,2.303300442922448],[-52.878665593115464,2.297523604691579],[-52.8835393203641,2.290090703375089],[-52.88614126339038,2.2815934184391713],[-52.88626434490683,2.2727081461460705],[-52.883898812353465,2.2641421545932214],[-52.879233000237384,2.25657728511283],[-52.872638326916004,2.2506156813702076],[-52.8646397236882,2.246731864946021],[-52.85587385181473,2.2452349702498933],[-52.84703843285042,2.2462441427738518],[-52.838836722940755,2.249679057362184],[-52.83192154697877,2.2552663105647937],[-52.82684334343127,2.262561178703477],[-52.82400635247921,2.270983011176558],[-52.8236364339027,2.279861443741999],[-52.825763077746274,2.288489755219332],[-52.83021704303439,2.296181121783741],[-52.83664381681394,2.3023232912812563],[-52.84453182616175,2.306427324546793],[-52.85325315983398,2.308166522029047],[-52.8550000893953,2.3082149284964766]]]}"
00000000000000000020,270.9843137254902,"{""type"":""Polygon"",""coordinates"":[[[-52.87166820913306,2.2870341984926084],[-52.880472476656905,2.285780629745396],[-52.88857588157778,2.282119713840811],[-52.89533336347777,2.276342876494431],[-52.90020702014605,2.268909975998727],[-52.90280892659463,2.2604126915637535],[-52.902932008101786,2.2515274192954315],[-52.90056651169123,2.242961427283472],[-52.89590076863497,2.235396557003357],[-52.88930619160573,2.22943495236996],[-52.88130770427926,2.225551135241917],[-52.87254195894832,2.224054240248488],[-52.863706667488444,2.225063412974471],[-52.855505076302165,2.228498328201113],[-52.848590001124656,2.234085582279135],[-52.843511872487596,2.2413804512571605],[-52.84067492446398,2.249802284271587],[-52.840305013084574,2.2586807169114413],[-52.842431627405254,2.2673090279730257],[-52.84688552843099,2.2750003937612564],[-52.85331220811599,2.281142562364385],[-52.86120010104553,2.28524659489644],[-52.869921305481945,2.286985792035024],[-52.87166820913306,2.2870341984926084]]]}"
00000000000000000021,207.25098039215686,"{""type"":""Polygon"",""coordinates"":[[[-52.87717073983301,2.270397292462201],[-52.88597490568564,2.269143723911406],[-52.89407821734301,2.265482808534773],[-52.900835622027444,2.2597059718831165],[-52.90570922372517,2.2522730720321027],[-52.90831110169297,2.243775787990597],[-52.90843418320459,2.2348905157417382],[-52.90606871495581,2.226324523369169],[-52.90140302569567,2.2187596524609083],[-52.894808523667514,2.2127980471278517],[-52.88681012660965,2.2089142294469615],[-52.878044479832006,2.207417334220015],[-52.86920928767428,2.208426507104679],[-52.86100778895377,2.211861422832683],[-52.854092792275104,2.217448677598301],[-52.84901472199006,2.22474354723559],[-52.84617780741285,2.233165380675219],[-52.84580790165095,2.2420438133735217],[-52.84793449298652,2.2506721241085534],[-52.852388343963945,2.258363489287133],[-52.858814950357925,2.264505657187762],[-52.86670275260227,2.268609689143703],[-52.875423856365735,2.270348886012349],[-52.87717073983301,2.270397292462201]]]}"
00000000000000000022,112.7607843137255,"{""type"":""Polygon"",""coordinates"":[[[-52.9023914153913,2.227656808864923],[-52.9111953234626,2.226403240818705],[-52.91929839866634,2.222742326798335],[-52.926055607602656,2.2169654919313646],[-52.93092906996952,2.2095325937365025],[-52.93353087577825,2.2010353107057825],[-52.933653957348746,2.192150038506923],[-52.9312885605307,2.1835840452079784],[-52.92662300766467,2.1760191726860683],[-52.920028695758795,2.1700575655556418],[-52.91203052750169,2.166173746454537],[-52.90326513051085,2.1646768506277065],[-52.89443019003685,2.1656860239200078],[-52.88622892568287,2.16912094093597],[-52.879314127988124,2.174708197467961],[-52.87423620564148,2.1820030687988394],[-52.87139937588853,2.1904249033307757],[-52.871029484414386,2.1993033361792254],[-52.87315601752508,2.2079316460753735],[-52.877609741654176,2.2156230096878113],[-52.884036162253956,2.221765175783782],[-52.891923734584815,2.225869206259734],[-52.90064458309929,2.2276084024349356],[-52.9023914153913,2.227656808864923]]]}"
00000000000000000023,101.90980392156862,"{""type"":""Polygon"",""coordinates"":[[[-52.928472697452904,2.223376071853615],[-52.93727657997646,2.2221225038579324],[-52.94537963174703,2.218461589973396],[-52.95213682128567,2.212684755285167],[-52.9570102698475,2.205251857256175],[-52.959612068509,2.1967545743266887],[-52.95973515008916,2.187869302132836],[-52.957369760352606,2.1793033087411127],[-52.95270422100387,2.17173843605759],[-52.94610992793721,2.1657768287471506],[-52.93811178235006,2.161893009503807],[-52.929346410107485,2.160396113616896],[-52.9205114945696,2.161405286950023],[-52.912310253436786,2.1648402040949786],[-52.90539547545895,2.1704274608038787],[-52.90031756777314,2.1777223323043753],[-52.89748074642865,2.18614416694571],[-52.89711085637412,2.195022599809197],[-52.89923738371859,2.203650909621328],[-52.90369109527994,2.2113422730769114],[-52.910117497468825,2.2174844389921398],[-52.91800504701491,2.221588469319866],[-52.92672587023273,2.223327665425617],[-52.928472697452904,2.223376071853615]]]}"
00000000000000000024,64.0,"{""type"":""Polygon"",""coordinates"":[[[-52.94518094910017,2.2086164473667083],[-52.95398474391521,2.207362879545265],[-52.96208771523796,2.203701966129067],[-52.968844838185156,2.197925132057119],[-52.973718239357524,2.1904922346000224],[-52.976320013487694,2.1819949520195765],[-52.9764430951064,2.1731096798429896],[-52.974077729684694,2.164543686131375],[-52.969412236742144,2.1569788128906335],[-52.962818008348435,2.151017204959534],[-52.9548199405821,2.147133385225767],[-52.94605465329323,2.1456364891317063],[-52.937219823353765,2.1466456626055974],[-52.92901866193354,2.1500805801953047],[-52.92210395164115,2.155667837514162],[-52.91702609428672,2.1629627095994826],[-52.914189301812065,2.1713845446180073],[-52.91381941663634,2.1802629775333426],[-52.91594592419059,2.1888912870557933],[-52.92039959261055,2.1965826499705634],[-52.9268259315961,2.202724815262614],[-52.93471340292078,2.2068288450792775],[-52.943434139292194,2.2085680409455706],[-52.94518094910017,2.2086164473667083]]]}"
00000000000000000025,0.0,"{""type"":""Polygon"",""coordinates"":[[[-52.98154045908998,2.1996982452598175],[-52.990344201192926,2.1984446775436512],[-52.99844712416811,2.1947837644104338],[-53.005204207096725,2.189006930710854],[-53.010077579792174,2.1815740335993077],[-53.01267933918367,2.1730767512297597],[-53.012802420829615,2.164191479063606],[-53.01043707002335,2.1556254851587062],[-53.00577160497029,2.1480606115812817],[-52.9991774154412,2.142099003275167],[-52.99117939443854,2.138215183245076],[-52.982414158198516,2.136718287025852],[-52.97357937969519,2.1377274605847947],[-52.96537826617518,2.141162378443231],[-52.958463596557294,2.146749636130636],[-52.95338576945077,2.154044508569319],[-52.95054899432861,2.16246634381575],[-52.95017911208885,2.1713447767624126],[-52.95230560775383,2.179973086109832],[-52.95675925025015,2.187664448697832],[-52.963185551253645,2.1938066136133467],[-52.97107297556906,2.1979106431212148],[-52.97979365974663,2.1996498388428236],[-52.98154045908998,2.1996982452598175]]]}"
