﻿site,Latitude,Longitude
Ca1,12.564,-16.742
Ca2,12.674,-16.738
Ca3,12.759,-16.727
Ca4,12.722,-16.639
Ca5,12.644,-16.607
Ca6,12.576,-16.347
Ca7,12.598,-16.175
Ca8,12.793,-15.081
Ca9,12.808,-15.236
Ca10,12.626,-15.521
Ca11,12.593,-15.951
Ca12,12.472,-16.637
Ca13,12.493,-16.51