﻿site,Latitude,Longitude
N01,-16.995562,13.238163
N02,-16.993671,13.239609
N03,-16.99935,13.25376
N04,-17.231325,13.658442
N05,-17.423,14.15514
N06,-17.440575,18.460196
N07,-17.738311,18.741894
N08,-17.836321,19.119834
N09,-17.886035,19.71134
N10,-17.865999,19.906319
N11,-18.012593,20.721022
N12,-18.03606,20.841997
N13,-18.138586,21.681162
N14,-18.118978,21.564215
N15,-17.54427,24.52158
N16,-17.486192,24.283333
N17,-17.481787,24.252406
N18,-17.524612,24.836303
N19,-17.80863,23.34537
N20,-17.80962,23.34339
N21,-17.889363,20.250629
N22,-22.527342,17.019403