system:index,EVI,ch,elevation,ep,gpp,hum,ndvi,rst,sd,slope,tsi,.geo
00000000000000000000,0.6785373134847734,20.15778272962016,26.67449494917095,357.1195649188809,513.6384147779273,0.16038007550111988,0.7674114452856884,25.483372615883322,1.948001822243392,2.3930283784866333,51.30309168680962,"{""type"":""Polygon"",""coordinates"":[[[-53.004460238504684,5.389939798442402],[-53.013296552526135,5.388686192946204],[-53.02142939388887,5.38502517826385],[-53.02821131834401,5.379248210938623],[-53.03310246852673,5.371815189827283],[-53.0357135515727,5.363317831780567],[-53.03583681336077,5.3544325558748485],[-53.03346254813537,5.3458666313329],[-53.028779838036336,5.338301878574006],[-53.02216147398685,5.332340404839637],[-53.014134266955566,5.328456691142043],[-53.00533711726537,5.326959839836366],[-52.996470178491535,5.32796898287539],[-52.98823915616945,5.331403804303659],[-52.98129916557068,5.336990929740345],[-52.97620260759757,5.344285675375708],[-52.973355204713215,5.352707428835809],[-52.9729836942038,5.361585850536618],[-52.97511775379562,5.370214222690135],[-52.979587606407236,5.377905702538109],[-52.98603750495272,5.384048002574381],[-52.99395403306423,5.388152142895095],[-53.00270697432314,5.389891390538056],[-53.004460238504684,5.389939798442402]]]}"
00000000000000000001,0.6667282919118537,34.99437576422742,57.0671251346157,344.36958786201143,564.2727304758885,0.11749362115507768,0.8537053393463594,,,,,"{""type"":""Polygon"",""coordinates"":[[[-52.874062746398764,5.180500281063104],[-52.88289607362596,5.179246678056782],[-52.89102616997382,5.175585670066949],[-52.897805812468995,5.169808711548139],[-52.90269532603957,5.162375698608706],[-52.90530554641869,5.153878345549143],[-52.905428784674605,5.144993069889618],[-52.90305533273001,5.136427140776267],[-52.898374204385725,5.128862380055061],[-52.89175806277216,5.122900897452151],[-52.88373354237151,5.11901717674711],[-52.87493933224376,5.117520322481588],[-52.86607535593226,5.1185294675319035],[-52.857847087247464,5.121964295315033],[-52.850909425213366,5.12755142946728],[-52.84581458625735,5.134846183459336],[-52.84296815455005,5.143267942309548],[-52.84259678673053,5.152146364751742],[-52.84473014498516,5.1607747327663684],[-52.84919850434166,5.168466204886641],[-52.855646234484865,5.174608496017987],[-52.86356009183766,5.1787126290356715],[-52.872310074980284,5.18045187325678],[-52.874062746398764,5.180500281063104]]]}"
00000000000000000002,0.7550554630479058,36.95112973809556,56.554209790503755,352.55149534076594,523.5315032450497,0.15742067905331641,0.8594816286822851,25.411029703937793,1.8205036341913592,8.260363513773138,52.53130866419597,"{""type"":""Polygon"",""coordinates"":[[[-51.875001155374214,3.851826399268889],[-51.88381832158256,3.8505728120226173],[-51.89193356875519,3.8469118463942036],[-51.89870087340275,3.8411349436173334],[-51.903581546640176,3.8337019824040124],[-51.906187117313486,3.825204660912424],[-51.90631024466126,3.8163193868120757],[-51.90394120297013,3.807753428763566],[-51.89926863226095,3.8001886176431174],[-51.89266450258262,3.794227078904299],[-51.88465449491293,3.79034331384342],[-51.87587615945644,3.7888464408425793],[-51.86702818109869,3.7898555986240248],[-51.858814785998305,3.793290466632282],[-51.85188970780195,3.7988776559521678],[-51.846804166807274,3.8061724628399056],[-51.84396299786361,3.8145942558075765],[-51.843592417612946,3.823472682941719],[-51.845721999169236,3.8321010247575753],[-51.85018229473516,3.839792447963335],[-51.8566183026743,3.845934682729122],[-51.864517713670494,3.8500387695210474],[-51.87325169141545,3.851777992083019],[-51.875001155374214,3.851826399268889]]]}"
00000000000000000003,0.7418857584670849,39.36210288843417,61.464036277478264,339.74497561729,543.4236553126647,0.15402190218601253,0.859735242641424,24.991301523619523,2.0255638903283324,7.226224511861801,51.216347093688995,"{""type"":""Polygon"",""coordinates"":[[[-51.87154089295675,3.890375327875928],[-51.88035846045746,3.8891217401731835],[-51.888474076245,3.885460773317815],[-51.89524168698295,3.879683868926431],[-51.900122579303165,3.872250906214898],[-51.90272826491825,3.8637535838089527],[-51.902851394551476,3.8548683096634226],[-51.90048224307213,3.8463023524529847],[-51.89580945989677,3.838737542792309],[-51.88920503233024,3.832776005679435],[-51.881194664985834,3.8288922419033025],[-51.87241593622558,3.8273953694451226],[-51.863567561520696,3.828404526857817],[-51.85535379783401,3.8318393937009705],[-51.84842840761543,3.8374265814229562],[-51.8433426358394,3.8447213867786107],[-51.840501335991405,3.8531431787581085],[-51.84013073574249,3.8620216057563703],[-51.842260410560705,3.8706499483310712],[-51.84672090590257,3.8783413729536087],[-51.8531572046108,3.884483609351976],[-51.861056974190134,3.888587697482781],[-51.869791349350415,3.890326920672088],[-51.87154089295675,3.890375327875928]]]}"
00000000000000000004,0.6394521737342451,29.053160655622317,129.97608430947923,363.97165472363906,592.4518879493345,0.11187542632516737,0.8209309573405874,25.39099148761406,1.46751677313782,5.112103682011366,56.260047045698016,"{""type"":""Polygon"",""coordinates"":[[[-52.46104742952545,4.593446250073794],[-52.469873023650514,4.592192654037965],[-52.477996013714254,4.5885316647840915],[-52.48476975015075,4.5827547309192305],[-52.48965502982378,4.575321740857503],[-52.49226302079907,4.566824401759879],[-52.492386201884,4.557939126789779],[-52.49001485782946,4.549373184878687],[-52.48533782458274,4.541808401866587],[-52.47872743403631,4.5358468944356405],[-52.47070986405944,4.531963154112754],[-52.461923257704214,4.530466291560923],[-52.453066944312376,4.531475442241996],[-52.44484579914752,4.5349102878160235],[-52.43791416242264,4.54049744636804],[-52.432823773406255,4.547792223755107],[-52.42997985797725,4.556213997695102],[-52.42960886314111,4.565092422212651],[-52.43174040970869,4.573720778640079],[-52.4362049065304,4.581412229126198],[-52.44264702490202,4.587554495327792],[-52.45055396846313,4.591658607900374],[-52.45929629285655,4.593397842541891],[-52.46104742952545,4.593446250073794]]]}"
00000000000000000005,0.7050054522619419,37.56221565322249,65.57781112023957,340.06123285275964,632.9379450044787,0.022422045196080757,0.8668175326060973,,,,,"{""type"":""Polygon"",""coordinates"":[[[-52.32887967430131,4.390646334163074],[-52.33770281529864,4.389392740532488],[-52.34582355138346,4.385731757743662],[-52.35259541507536,4.3799548323859385],[-52.357479352933325,4.372521850218468],[-52.36008663821749,4.364024515938641],[-52.36020980255947,4.3551392412065],[-52.35783912800464,4.346573294879429],[-52.35316339374068,4.339008504175575],[-52.34655482644613,4.333046988177362],[-52.338539459263124,4.329163241085041],[-52.32975526239742,4.32766637567389],[-52.320901377205004,4.328675528297946],[-52.31268248959942,4.33211038001099],[-52.30575276292402,4.3376975469825005],[-52.30066378525332,4.34499233244232],[-52.29782066871871,4.353414111589199],[-52.29744979351686,4.362292536822815],[-52.2995807669101,4.370920889251874],[-52.304044039795215,4.378612332272833],[-52.3104843788793,4.384754589872116],[-52.31838912961229,4.388858695389886],[-52.32712902450268,4.390597926725862],[-52.32887967430131,4.390646334163074]]]}"
00000000000000000006,0.7349176441940075,30.050224083751857,51.51368547263625,370.7719521835264,547.9016516354384,0.10507274894196338,0.848223383535565,25.058196180197672,1.1871280090258582,8.21811711227656,57.785587611205365,"{""type"":""Polygon"",""coordinates"":[[[-54.23296933333535,5.301145719165136],[-54.24180436641175,5.299892114724752],[-54.24993603050229,5.296231102880315],[-54.25671697624488,5.290454139289387],[-54.26160742445545,5.2830211216432845],[-54.26421813743539,5.27452376571133],[-54.26434138904521,5.265638489910004],[-54.26196747256015,5.257072563429582],[-54.257285440832575,5.249507807294329],[-54.2506680299877,5.2435463297993214],[-54.24264197529701,5.239662613130274],[-54.2338460864569,5.238165760569497],[-54.22498041835748,5.239174904461394],[-54.21675057712205,5.242609728584393],[-54.209811585255565,5.248196857716846],[-54.20471576453399,5.255491606895803],[-54.201868778116506,5.263913362641544],[-54.20149732872122,5.272791784656736],[-54.20363108743598,5.281420155055192],[-54.20810029955238,5.28911163162629],[-54.21454926808045,5.295253927886491],[-54.222464650760564,5.2993580651104075],[-54.23121632337118,5.301097311302354],[-54.23296933333535,5.301145719165136]]]}"
00000000000000000007,0.7489068721004717,32.502761041756386,53.7483045174521,380.9939435253273,632.2985899834645,0.12544865972756922,0.8606476811645519,,,,,"{""type"":""Polygon"",""coordinates"":[[[-54.10530081107413,5.379095264680423],[-54.11413696749453,5.377841659313188],[-54.12226966401011,5.374180644977477],[-54.12905146804551,5.368403678108383],[-54.13394253185492,5.360970657420312],[-54.136553569362455,5.352473299631906],[-54.136676829891535,5.343588023738938],[-54.13430260756941,5.33502209896021],[-54.129619980934194,5.327457345788906],[-54.12300173416766,5.321495871595187],[-54.11497466892446,5.317612157534639],[-54.10617767437554,5.316115306075656],[-54.09731089195195,5.3171244492188565],[-54.08908001495541,5.320559270976276],[-54.08214014724204,5.32614639686439],[-54.07704367997804,5.3334411429325925],[-54.07419632833045,5.341862896671876],[-54.07382482533387,5.350741318411085],[-54.07595884789989,5.359369690350228],[-54.08042862170166,5.367061169797942],[-54.086878405818105,5.373203469372978],[-54.09479479299958,5.377307609315429],[-54.103547578170186,5.379046856781153],[-54.10530081107413,5.379095264680423]]]}"
00000000000000000008,0.6675722642655334,36.46014588665704,47.62151826223548,362.6790491183021,641.2517552124694,0.04300646662235567,0.8562563284672926,25.414743821404883,1.5986643940088079,6.590445200602214,55.426194079233454,"{""type"":""Polygon"",""coordinates"":[[[-53.66108962323091,5.374573736212229],[-53.66992571403616,5.373320130898764],[-53.678058350246644,5.369659116707577],[-53.68484010414716,5.36388215002866],[-53.68973113199668,5.356449129517061],[-53.69234215054548,5.347951771836353],[-53.69246541055094,5.339066495948701],[-53.69009120609137,5.330500571071254],[-53.6854086142052,5.322935817728003],[-53.67879041626744,5.316974343342767],[-53.67076341005505,5.313090629130893],[-53.66196648009614,5.3115937776079925],[-53.6530997627659,5.312602920794626],[-53.6448689462729,5.31603774268928],[-53.637929129720746,5.321624868765605],[-53.632832700222174,5.3289196150142715],[-53.6299853699066,5.337341368869955],[-53.629613870038426,5.346219790625176],[-53.63174787718984,5.354848162474939],[-53.63621761818069,5.362539641755771],[-53.64266735465645,5.368681941138505],[-53.65058368316369,5.372786080923247],[-53.65933640334898,5.374525328315076],[-53.66108962323091,5.374573736212229]]]}"
00000000000000000009,0.6675745498090394,36.459893777533836,47.61929448872978,362.6819855977483,641.2544914338337,0.04300676523839401,0.856258164568729,25.414703625502675,1.598669540083439,6.590445200602214,55.426123992872526,"{""type"":""Polygon"",""coordinates"":[[[-53.6610807050288,5.374596031717495],[-53.669916796157466,5.373342426403765],[-53.67804943266519,5.369681412211866],[-53.684831186812815,5.36390444553201],[-53.68972221483957,5.356471425019542],[-53.69233323348181,5.347974067338303],[-53.69245649348986,5.339088791450625],[-53.69008228894224,5.3305228665736655],[-53.685399696884794,5.322958113231261],[-53.67878149870637,5.31699663884697],[-53.67075449220303,5.313112924635842],[-53.66195756192576,5.311616073113256],[-53.65309084427468,5.312625216299676],[-53.644860027483475,5.316060038193653],[-53.63792021067915,5.321647164269051],[-53.63282378099444,5.328941910516826],[-53.629976450573736,5.337363664371936],[-53.62960495069012,5.346242086127077],[-53.631738957917506,5.354870457977283],[-53.63620869907008,5.3625619372589375],[-53.64265843578066,5.36870423664262],[-53.6505747645771,5.3728083764281385],[-53.65932748508269,5.374547623820332],[-53.6610807050288,5.374596031717495]]]}"
0000000000000000000a,0.6920854587119913,34.89482496534959,46.33363067590521,364.12548686472866,654.1701184964799,0.048146918064862085,0.860261615789021,25.01607102729159,1.2320096579291613,5.676940476894378,57.62482302341865,"{""type"":""Polygon"",""coordinates"":[[[-53.66264139039751,5.407294619742415],[-53.67147795730288,5.406041014039822],[-53.6796110310857,5.402379998802699],[-53.68639314876649,5.3966030307474755],[-53.69128443754584,5.389170008958741],[-53.69389559366624,5.380672650498621],[-53.69401885747833,5.371787374572496],[-53.69164452341335,5.363221450409488],[-53.6869616793895,5.35565669831062],[-53.68034312714672,5.349695225311393],[-53.672315692599064,5.345811512194672],[-53.66351829396467,5.344314661134347],[-53.65465110430656,5.345323804006648],[-53.646419848791524,5.34875862490814],[-53.639479661009325,5.354345749622364],[-53.63438295748518,5.361640494565012],[-53.63153547238905,5.370062247578304],[-53.6311639498283,5.3789406692176565],[-53.63329806883536,5.38756904171426],[-53.637768047907606,5.395260522202809],[-53.644218130066434,5.401402822977242],[-53.65213488431292,5.405506963903332],[-53.66088807602855,5.407246211829943],[-53.66264139039751,5.407294619742415]]]}"
0000000000000000000b,0.7688503965583056,29.488541616550265,39.33115997628393,376.33393032607387,561.4413558300856,0.04895041030238712,0.8531058782542277,25.463905435732315,1.186279070833626,8.312949575282431,57.82460771417802,"{""type"":""Polygon"",""coordinates"":[[[-54.30749874834263,5.2534377969943185],[-54.31633310209867,5.252184193121085],[-54.32446414186078,5.248523182801088],[-54.331244568594926,5.242746221216106],[-54.33613464457788,5.23531320543142],[-54.33874516135843,5.226815850635454],[-54.33886840762213,5.2179305748902065],[-54.33649467611433,5.209364647368499],[-54.331813004142745,5.201799889419569],[-54.325196098766675,5.195838409904465],[-54.31717065511782,5.191954691639243],[-54.30837543484423,5.1904578384042654],[-54.29951044051948,5.191466982754299],[-54.29128122556533,5.194901808324824],[-54.284342763304835,5.200488939442528],[-54.27924733355752,5.207783690524996],[-54.27640056802873,5.21620544749851],[-54.27602915109276,5.2250838696825745],[-54.27816275030118,5.233712239138263],[-54.282631622795584,5.241403713949128],[-54.289080098143366,5.247546008180942],[-54.29699487338436,5.251650143741357],[-54.30574587319731,5.253389389153867],[-54.30749874834263,5.2534377969943185]]]}"
0000000000000000000c,0.6983014939125448,31.30876075232569,18.95227338853817,365.8359994123023,373.0980468585145,0.1298579039337293,0.8595799044060989,24.608160646607843,1.1560891225113066,8.98571644888984,58.02975002188958,"{""type"":""Polygon"",""coordinates"":[[[-54.01110676042114,5.594826573646134],[-54.019946112592024,5.593572965712522],[-54.028081746317866,5.589911944478664],[-54.03486599236101,5.584134968532592],[-54.03975880792242,5.576701939421568],[-54.04237076921682,5.568204576492823],[-54.042494055623486,5.559319300346133],[-54.04011896353787,5.550753380279274],[-54.035434644447314,5.5431886353149],[-54.02881401919796,5.537227170262158],[-54.02078407833887,5.533343463424314],[-54.01198393726488,5.531846615016095],[-54.00311398378766,5.532855756086223],[-53.994880159408055,5.536290571293573],[-53.98793779955865,5.541877688198391],[-53.98283949287292,5.54917242565317],[-53.97999110244085,5.557594173836729],[-53.979619447431695,5.566472594811743],[-53.98175422117175,5.575100971016899],[-53.98622559337594,5.582792458429709],[-53.99267769804917,5.588934767183257],[-54.0005969430337,5.593038914653117],[-54.009352893289666,5.594778165645828],[-54.01110676042114,5.594826573646134]]]}"
0000000000000000000d,0.7750198707196867,34.8438017430498,34.042534690923134,367.903826198518,547.7513527289084,0.07117851649856065,0.8684257099193501,25.76446321705083,1.194065992677337,6.089281575547324,57.80050730613708,"{""type"":""Polygon"",""coordinates"":[[[-54.36693856538508,5.158717572417021],[-54.37577158886246,5.157463969669563],[-54.3839014060578,5.153802962375526],[-54.39068081650638,5.148026004772288],[-54.395570163674584,5.140592992682459],[-54.39818029636699,5.132095640141395],[-54.3983035322702,5.123210364507468],[-54.395930163058296,5.114644434918844],[-54.391249195572314,5.107079673369826],[-54.384633279942435,5.101118189844885],[-54.376609032706156,5.097234468411302],[-54.36781512144902,5.095737613838055],[-54.35895144633544,5.096746759097477],[-54.35072345762524,5.100181587541301],[-54.343786032362104,5.105768722599675],[-54.33869136821777,5.113063477460549],[-54.33584503529631,5.12148523687115],[-54.33547368202619,5.1303636593904205],[-54.337606969001136,5.13899202697474],[-54.342075176536476,5.1466834982915906],[-54.34852268618458,5.152825788497122],[-54.35643627193908,5.156929920755538],[-54.365185954249476,5.158669164620889],[-54.36693856538508,5.158717572417021]]]}"
0000000000000000000e,0.770166149730178,28.89264143252695,39.35689860248208,373.18672373865616,553.9174988307707,0.07568276243406316,0.8524062560611889,25.228623401089887,1.1635101495771063,9.778471458525885,58.0187032537256,"{""type"":""Polygon"",""coordinates"":[[[-54.25889008775903,5.2953845606040835],[-54.267725038470665,5.294130956232194],[-54.27585662686357,5.290469944571858],[-54.282637509677436,5.2846929812231815],[-54.28752791275518,5.277259963801877],[-54.29013860194463,5.268762608007114],[-54.29026185290431,5.259877332212559],[-54.28788795884582,5.251311405606384],[-54.28320597073728,5.243746649252098],[-54.27658862117995,5.23778517151313],[-54.26856264057838,5.233901454651317],[-54.25976683280281,5.232404602009119],[-54.250901246399486,5.233413745956344],[-54.2426714811011,5.236848570254156],[-54.235732553448976,5.242435699626362],[-54.23063678013179,5.2497304490352015],[-54.227789820495204,5.2581522049292175],[-54.22741837503364,5.267030626964804],[-54.22955211440678,5.275658997249402],[-54.234021285343545,5.283350473607923],[-54.2404701940743,5.289492769623162],[-54.24838550310441,5.293596906646182],[-54.257137094141065,5.2953361527439995],[-54.25889008775903,5.2953845606040835]]]}"
0000000000000000000f,0.6955371252134905,20.14015165265193,11.711854123374962,370.9004757065475,285.9330530183607,0.10016187133168797,0.8154927430059165,24.590437587744606,1.1979859354382272,1.8414147595564525,57.549675641033815,"{""type"":""Polygon"",""coordinates"":[[[-53.973610179662714,5.720666864475431],[-53.98245145494185,5.71941325504393],[-53.99058885626731,5.715752229783915],[-53.99737457202959,5.709975248539997],[-54.00226844204897,5.702542214512862],[-54.00488095961602,5.694044848583937],[-54.00500426192741,5.6851595722891775],[-54.00262864664082,5.676593654972446],[-53.997943309061164,5.669028914798103],[-53.99132125224241,5.663067455080545],[-53.983289580433706,5.659183752458269],[-53.97448754525077,5.6576869058306425],[-53.96561568289139,5.658696045690812],[-53.95738008434025,5.662130857075178],[-53.9504362244809,5.667717968736848],[-53.94533681081795,5.675012701164345],[-53.94248779543586,5.683434446105259],[-53.942116049263724,5.692312866634225],[-53.94425127540477,5.700941245329254],[-53.94872360980317,5.70863273739094],[-53.955177111134276,5.714775051501593],[-53.96309807595437,5.718879203364885],[-53.971855930874334,5.7206184564161555],[-53.973610179662714,5.720666864475431]]]}"
00000000000000000010,0.6570215585982552,35.50833148331451,51.87142605572095,382.54368656035643,622.2494624999838,0.04537440549818206,0.8648109404051885,,,,,"{""type"":""Polygon"",""coordinates"":[[[-53.5164096304508,5.508395817927194],[-53.52524768695236,5.507142211021999],[-53.53338212981111,5.503481192552419],[-53.54016538572901,5.497704220243741],[-53.545057490989315,5.490271194508024],[-53.54766907765321,5.481773833639149],[-53.547792353481796,5.472888557594128],[-53.54541761397758,5.464322635639092],[-53.54073398107284,5.456757887385977],[-53.534114320213696,5.4507964186701985],[-53.52608554535726,5.446912708938022],[-53.51728668015689,5.445415859307282],[-53.50841801250132,5.446425001208144],[-53.5001853832303,5.449859819040284],[-53.49324403386243,5.45544693954495],[-53.48814647296035,5.462741680451362],[-53.4852985036464,5.471163430861254],[-53.48492691018691,5.480041852142507],[-53.48706137927934,5.488670226638159],[-53.49153210335118,5.496361710859139],[-53.49798326713332,5.502504015934605],[-53.50590135343978,5.506608160388025],[-53.51465602045677,5.508347409967375],[-53.5164096304508,5.508395817927194]]]}"
00000000000000000011,0.7547576639888094,31.848773491999705,90.816229349173,383.9676937320686,544.7329811200642,0.05460288442747631,0.8590420184196432,25.93902715882272,1.2625813800989418,6.394573458469878,57.41072619048962,"{""type"":""Polygon"",""coordinates"":[[[-54.40287000167374,4.429525236248071],[-54.41169360429174,4.428271642156477],[-54.41981476450882,4.4246106581285085],[-54.42658698057232,4.41883373114024],[-54.431471170872705,4.411400747459692],[-54.43407858888498,4.402903412256445],[-54.43420175631722,4.394018137478692],[-54.431830955742605,4.385452191998022],[-54.42715497704432,4.377887402768431],[-54.42054606670564,4.3719258884122905],[-54.41253028509768,4.368042142617455],[-54.40374563493614,4.366545277754347],[-54.39489129292944,4.367554430005992],[-54.386671980599615,4.370989280542384],[-54.379741894555444,4.376576445900144],[-54.37465265131512,4.383871229812675],[-54.371809384418434,4.3922930079615625],[-54.371438486647264,4.401171433057932],[-54.373569567831794,4.409799786253354],[-54.37803307097422,4.417491230705146],[-54.38447374483906,4.4236334899532155],[-54.39237890819339,4.4277375968231665],[-54.40111926025718,4.429476828792709],[-54.40287000167374,4.429525236248071]]]}"
00000000000000000012,0.7585449830965977,27.642057629459977,74.80970698265037,389.10595897573336,571.8885247654399,0.09603633307258144,0.8445759669545378,25.94753595751633,1.259103453831731,3.6842730045318604,57.37308737353092,"{""type"":""Polygon"",""coordinates"":[[[-54.39339887103622,4.326016123494432],[-54.402221253755485,4.3247625306300925],[-54.41034129315651,4.321101549900865],[-54.4171125780647,4.315324627253298],[-54.42199610130912,4.30789164760074],[-54.424603168639244,4.299394314855747],[-54.42472632796954,4.290509040199423],[-54.42235586045856,4.281943092465536],[-54.41768052770921,4.274378299311282],[-54.411072523861584,4.268416780583749],[-54.403057837335986,4.264533031334853],[-54.394274384952624,4.263036165012793],[-54.385421250019654,4.264045318255835],[-54.37720305998281,4.267480171924621],[-54.37027392356072,4.2730673415783755],[-54.365185382113054,4.280362129609972],[-54.36234251260071,4.288783910415628],[-54.36197167453312,4.297662335877356],[-54.364102470934945,4.306290687032629],[-54.36856536565213,4.313982127675374],[-54.375005154852694,4.320124382534178],[-54.382909227814295,4.3242284858044675],[-54.39164837173365,4.325967716087386],[-54.39339887103622,4.326016123494432]]]}"
00000000000000000013,0.7783010489146623,32.331624694054454,98.04943166498215,397.8194844811522,552.8983678652947,0.030896893432419463,0.8649097152773039,25.84945063805347,1.2368924053125965,13.664694464724997,57.38181324846458,"{""type"":""Polygon"",""coordinates"":[[[-54.443019747558964,4.4715344272725845],[-54.451843853585956,4.4702808326828105],[-54.4599654763372,4.466619847315786],[-54.466738076689644,4.4608429185655],[-54.471622542315004,4.4534099332498736],[-54.474230105106635,4.444912597048752],[-54.47435327594168,4.436027322221711],[-54.47198233795873,4.427461377655686],[-54.467306092696724,4.41989659001923],[-54.460696808233266,4.413935077437564],[-54.45268057463619,4.410051333044832],[-54.44389543008265,4.4085544687739535],[-54.435040589845705,4.409563620623165],[-54.426820814291744,4.412998469888025],[-54.41989033631568,4.41858563350192],[-54.414800803458284,4.425880415742401],[-54.411957372603744,4.434302192812827],[-54.41158645025113,4.443180617760885],[-54.41371764902093,4.45180897178446],[-54.41818140329662,4.459500417782456],[-54.42462244226956,4.465642678812257],[-54.432528055607165,4.469746787143416],[-54.44126890623099,4.471486019797609],[-54.443019747558964,4.4715344272725845]]]}"
00000000000000000014,0.7677658660555956,29.843235750083903,58.0227452319957,391.92413854482425,539.666552961062,0.054567340373132,0.8536824223264564,25.75471802728248,1.2260082951585904,7.624551845633465,57.57252771545206,"{""type"":""Polygon"",""coordinates"":[[[-54.402401796063124,4.641617918754169],[-54.41122798934197,4.640364322146818],[-54.419351529944436,4.636703331356748],[-54.426125723847285,4.6309263954704605],[-54.43101133135145,4.62349340353294],[-54.43361949481102,4.614996063290539],[-54.43374268009975,4.606110788263901],[-54.43137117259396,4.597544847402114],[-54.42669382207601,4.589980066217693],[-54.420082986124584,4.5840185608224555],[-54.41206487796726,4.580134822108085],[-54.403277682901845,4.57863796023567],[-54.39442077622574,4.579647110455063],[-54.38619907949257,4.583081954570368],[-54.37926697614687,4.58866911112179],[-54.37417624239908,4.595963886590649],[-54.37133213190256,4.604385659293407],[-54.37096110795491,4.613264083640806],[-54.373092794641344,4.6218924410183],[-54.37755759050946,4.629583893278253],[-54.384000143529796,4.635726161523888],[-54.391907622701325,4.639830275772801],[-54.40065054048153,4.641569511199766],[-54.402401796063124,4.641617918754169]]]}"
00000000000000000015,0.746980239488366,34.31397497938615,67.73509906323176,382.9327784853941,494.5286017116034,0.04797141159014961,0.8395891127686778,25.797446121596057,1.2016386990833139,12.697789375598614,57.72086121829045,"{""type"":""Polygon"",""coordinates"":[[[-54.42578978108845,4.7015259414072155],[-54.4346167283156,4.700272344088988],[-54.442740961704544,4.696611351388157],[-54.44951573129687,4.690834412987567],[-54.45440175138387,4.683401418716888],[-54.457010131955414,4.674904077050584],[-54.457133322593656,4.666018801953626],[-54.4547616094435,4.657452862396996],[-54.45008385968211,4.6498880834858864],[-54.44347246320477,4.643926580622716],[-54.435453677737485,4.640042843909056],[-54.42666574175368,4.638545982881714],[-54.4178080884011,4.639555132526859],[-54.4095856975051,4.642989974827772],[-54.40265300692791,4.648577128890803],[-54.397561839373395,4.655871901973747],[-54.39471748344131,4.664293673137596],[-54.39434642291735,4.673172097273351],[-54.396478285988835,4.681800455832564],[-54.40094345822152,4.689491910298856],[-54.40738655822302,4.695634181086921],[-54.41529471139962,4.6997382974209],[-54.42403837587286,4.701477533824825],[-54.42578978108845,4.7015259414072155]]]}"
00000000000000000016,0.7415128334335462,34.53555376195352,47.264900484939865,365.3963626094624,538.9993533886352,0.04631845671928456,0.8578563172854891,25.437017847061067,1.1951840292924718,9.3329276163131,57.85365907170298,"{""type"":""Polygon"",""coordinates"":[[[-54.46392847239858,4.952854254082585],[-54.47275868925215,4.951600653780716],[-54.48088592718554,4.947939653060166],[-54.487663193763396,4.942162704106723],[-54.492551003740935,4.934729700043483],[-54.49516032663786,4.926232352400913],[-54.495283541187206,4.917347077008841],[-54.4929109366469,4.908781142930138],[-54.48823145545606,4.9012163735604055],[-54.48161762758612,4.895254881324615],[-54.47359590380041,4.891371153008174],[-54.46480475336186,4.889874295527703],[-54.455943860556516,4.890883442762657],[-54.44771845818262,4.894318277448361],[-54.44078322029804,4.8999054210673245],[-54.435690171321404,4.9072001841362844],[-54.43284475135816,4.915621948841121],[-54.43247353288674,4.924500372088553],[-54.43460616166783,4.933128735607553],[-54.43907296676177,4.940820199334117],[-54.44551843930237,4.94696248079309],[-54.45342951561944,4.95106660587837],[-54.462176418274844,4.952805846382733],[-54.46392847239858,4.952854254082585]]]}"
00000000000000000017,0.6186355762320571,18.90545267961145,34.68898143897723,364.26431184682355,595.1237205406925,0.0746640713605803,0.7596370075908178,26.65591546238858,4.66110409787205,2.627687454223633,37.81937362284367,"{""type"":""Polygon"",""coordinates"":[[[-53.8315075472915,5.592516759300451],[-53.840346864569796,5.591263151394324],[-53.84848246622506,5.587602130234351],[-53.85526668560311,5.581825154385501],[-53.86015948203462,5.574392125364692],[-53.86277143323852,5.565894762491005],[-53.86289471935884,5.557009486347032],[-53.860519636767414,5.548443566229705],[-53.85583533615605,5.5408788211774285],[-53.849214736879084,5.53491735602678],[-53.84118482742283,5.531033649111576],[-53.83238472071111,5.529536800670681],[-53.82351480186413,5.530545941763013],[-53.81528100967133,5.533980757040518],[-53.80833867703579,5.539567874041555],[-53.80324039043443,5.546862611588589],[-53.80039201134243,5.555284359831655],[-53.80002035798942,5.564162780814852],[-53.80215512352363,5.572791156974318],[-53.806626478272065,5.580482644301815],[-53.81307855760598,5.586624952957054],[-53.82099777138668,5.59072910034629],[-53.82975368708477,5.592468351301226],[-53.8315075472915,5.592516759300451]]]}"
00000000000000000018,0.7007080240232636,36.57522144657246,61.76596890774904,369.6862225984634,655.5106203733935,0.048819066903451835,0.8707657913878303,,,,,"{""type"":""Polygon"",""coordinates"":[[[-53.58202976155331,5.438722363967101],[-53.59086678850515,5.437468757890718],[-53.599000285109256,5.433807741648889],[-53.60578275431308,5.4280307722716135],[-53.610674295238546,5.420597749256081],[-53.613285584309196,5.412100390047278],[-53.61340885181543,5.403215114084196],[-53.611034392524616,5.394649190607466],[-53.60635130486401,5.387084439703929],[-53.59973241025022,5.3811229680360775],[-53.59170456178702,5.377239255971335],[-53.58290671025071,5.375742405355352],[-53.57403906416083,5.376751547925713],[-53.565807384402184,5.380186367873192],[-53.55886683789239,5.385773491279006],[-53.55376986957934,5.393068234967119],[-53.55092223492932,5.401489987171227],[-53.550550690456156,5.410368408699275],[-53.552684917564704,5.418996781817221],[-53.557155126705894,5.426688263465879],[-53.56360554290193,5.432830565577152],[-53.571522708536634,5.436934707599601],[-53.58027635588345,5.438673956039913],[-53.58202976155331,5.438722363967101]]]}"
00000000000000000019,0.7157789012717457,34.765505064604184,138.00776060715575,410.98018843996994,557.9276250065668,0.038169669319041546,0.8560651922035856,25.802007793070647,1.1928693780743675,5.5122384820665635,58.00561354979155,"{""type"":""Polygon"",""coordinates"":[[[-54.2627605874734,3.9440138544478285],[-54.27157872005085,3.9427602661098593],[-54.27969485491258,3.939099297547069],[-54.28646289670061,3.933322390908941],[-54.291344097570565,3.925889426112512],[-54.29394994509978,3.9173921024341554],[-54.29407307800565,3.9085068282257547],[-54.291703771961146,3.8999408721815687],[-54.28703068959997,3.892376064552303],[-54.280425842520515,3.886414529702076],[-54.272414968622904,3.8825307677137864],[-54.26363568593302,3.881033896010767],[-54.254786753010904,3.88204305291031],[-54.246572470216584,3.8854779181321164],[-54.23964664057458,3.891065103630481],[-54.23456054381454,3.898359906854098],[-54.23171905966078,3.906781697458461],[-54.231348431302855,3.915660124267634],[-54.23347823750714,3.924288467898334],[-54.2379390142148,3.931979894492446],[-54.24437572240255,3.9381221331626963],[-54.25227599693333,3.942226223156682],[-54.26101093171239,3.9439654472189805],[-54.2627605874734,3.9440138544478285]]]}"
0000000000000000001a,0.6925320381070466,36.102251587097,103.5218338337926,405.2282108608732,547.9018399954748,0.03267202655631147,0.8470849783807037,25.644874707304787,1.2908968107137408,6.1063461644308905,57.33778830825233,"{""type"":""Polygon"",""coordinates"":[[[-54.30762806227318,4.0191764618047126],[-54.316446999807944,4.017922872576478],[-54.32456387411915,4.01426190162074],[-54.331332530002754,4.008484991833805],[-54.336214170501556,4.001052024115403],[-54.33882024879466,3.992554698653771],[-54.33894338646772,3.98366942435726],[-54.336573860306025,3.975103469947577],[-54.331900351745595,3.967538665165323],[-54.325294906980744,3.961577133486187],[-54.31728331133826,3.957693374003545],[-54.308503239372804,3.9561965033588833],[-54.299653511063404,3.957205659539246],[-54.29143848862935,3.960640522488745],[-54.28451203292423,3.9662277048707115],[-54.27942547319988,3.9735225051062915],[-54.276583726551394,3.981944293783405],[-54.27621305825127,3.9908227203275657],[-54.278343051732456,3.9994510654382402],[-54.2828042293507,4.007142494795506],[-54.28924152091423,4.013284736649793],[-54.29714251478312,4.017388829255019],[-54.3058782467475,4.019128054540816],[-54.30762806227318,4.0191764618047126]]]}"
0000000000000000001b,0.7526671004039234,29.508514631308024,76.30806447906171,395.18432506272654,544.9838287561356,0.05722597278798782,0.8461925666874797,25.893055881833156,1.2498798575789158,5.695536304603923,57.535296730195505,"{""type"":""Polygon"",""coordinates"":[[[-54.39623931840726,4.237997927800461],[-54.405060686707095,4.236744335979446],[-54.41317979411803,4.233083358054568],[-54.41995030480855,4.227306439097154],[-54.42483327350623,4.219873462868908],[-54.42744004940293,4.2113761322137515],[-54.42756320215984,4.2024908576606625],[-54.42519301170853,4.193924908011258],[-54.4205182160951,4.186360111520536],[-54.41391096591702,4.1803985890767565],[-54.40589718977746,4.176514836891455],[-54.39711473311171,4.175017969329097],[-54.38826260161999,4.176027123414956],[-54.380045344579386,4.179461979746687],[-54.37311699766953,4.18504915305259],[-54.368029039771535,4.192343944585921],[-54.36518650078703,4.200765727650171],[-54.364815712521235,4.209644153422492],[-54.36694627228981,4.218272502843374],[-54.371408661223875,4.225963940247935],[-54.377847714878854,4.2321061913753],[-54.38575088115949,4.236210291585418],[-54.394489020438314,4.237949520434491],[-54.39623931840726,4.237997927800461]]]}"
0000000000000000001c,0.753377093569604,35.25606950961049,89.24850592896034,398.14884377924085,569.4461285092805,0.034506912668476844,0.869340689456725,26.00370562483639,1.2089956673605327,8.029627269314181,57.74029586529097,"{""type"":""Polygon"",""coordinates"":[[[-54.3439385221514,4.124696629133456],[-54.352758615622506,4.1234430386551075],[-54.36087655184428,4.119782064339188],[-54.367646089699775,4.11400515013069],[-54.37252836170263,4.106572178309247],[-54.3751347716017,4.0980748503435445],[-54.37525791632449,4.089189575923319],[-54.372888074190605,4.08062362380881],[-54.36821395358675,4.073058823024336],[-54.3616076503677,4.067097295798047],[-54.35359501798376,4.063213539833838],[-54.34481381221896,4.061716670675316],[-54.335962941325874,4.062725825845806],[-54.327746856431745,4.066160685604533],[-54.320819501492345,4.071747863610453],[-54.31573227689962,4.079042659650227],[-54.312890153401014,4.087464445621089],[-54.312519427935534,4.096342871793111],[-54.314649690575415,4.104971218981966],[-54.31911144410815,4.112662652219252],[-54.32554957354425,4.118804898544571],[-54.33345160045614,4.122908994816508],[-54.34218847720166,4.124648221820345],[-54.3439385221514,4.124696629133456]]]}"
0000000000000000001d,0.7078166989011426,36.34002339505866,141.58848903309425,388.8737782882738,589.0073815293787,0.01720817682438301,0.875213559044284,25.289039661248527,1.2155246765144203,5.992000142733256,57.605477175634206,"{""type"":""Polygon"",""coordinates"":[[[-54.00067246395608,3.5992272427932868],[-54.009487100238324,3.5979736585371342],[-54.01760002367648,3.594312700945881],[-54.02436539905876,3.588535808744891],[-54.02924469184419,3.581102857345611],[-54.031849538762096,3.57260554184355],[-54.03197265251079,3.5637202680391855],[-54.02960430345337,3.555154304500914],[-54.02493307217839,3.54758948381821],[-54.0183308198658,3.541627934428619],[-54.010323078555366,3.5377441609519806],[-54.00154722114379,3.5362472843964246],[-53.99270173998704,3.5372564445933916],[-53.98449066734431,3.540691320233683],[-53.97756755550554,3.5462785200206417],[-53.97248346929488,3.553573336944307],[-53.969643126019704,3.561995136384999],[-53.96927267261088,3.570873564409186],[-53.97140166709527,3.5795019012542024],[-53.97586070397077,3.5871933151793463],[-53.98229487929618,3.5933355392509223],[-53.99019202985353,3.597439617272504],[-53.99892350213719,3.5991788357251346],[-54.00067246395608,3.5992272427932868]]]}"
0000000000000000001e,0.734121035766025,35.003996894014925,134.9561828872583,399.5327561273797,635.6368260263508,0.033741034044753426,0.8733900051407173,25.605131656042076,1.2680624247123258,7.122720042864482,57.530469130744166,"{""type"":""Polygon"",""coordinates"":[[[-53.98989035760884,3.6898272579972],[-53.99870588142924,3.6885736726687743],[-54.00681962003328,3.6849127121953513],[-54.0135856721359,3.6791358162017933],[-54.0184654490515,3.6717028612831397],[-54.02107054968988,3.6632055436331954],[-54.02119366804147,3.654320269722683],[-54.01882507589765,3.645754308153068],[-54.014153374737774,3.638189490899444],[-54.00755046395126,3.6322279453292845],[-53.99954192781307,3.62834417487059],[-53.99076520137883,3.6268472995897776],[-53.98191884448554,3.6278564589205233],[-53.9737069573523,3.63129133182392],[-53.966783155843814,3.6368785278573212],[-53.961698559305994,3.6441733411820456],[-53.95885792629252,3.6525951383014776],[-53.958487428227095,3.661473566006495],[-53.96061662848041,3.670101904634089],[-53.965076106761366,3.6777933218873162],[-53.97151092488792,3.6839355497938966],[-53.979408868395495,3.6880396309605707],[-53.98814121963007,3.6897788508868334],[-53.98989035760884,3.6898272579972]]]}"
0000000000000000001f,0.7404295232747101,29.468834405726284,121.65628273782748,391.0072048616256,590.7927638926743,0.10050078034429917,0.8388734950033503,25.932897548866308,1.254597707293743,3.679767429828644,57.605659995692754,"{""type"":""Polygon"",""coordinates"":[[[-54.01611879000522,3.681867762616799],[-54.024934234962245,3.680614177382585],[-54.033047901131944,3.676953217162393],[-54.03981389309927,3.6711763215020548],[-54.044693626989776,3.663743366892617],[-54.04729870507505,3.6552460494313883],[-54.04742182300994,3.6463607755302023],[-54.04505325246133,3.6377948137876186],[-54.04038159305415,3.630229996232711],[-54.033778740783426,3.6242684503269715],[-54.025770275282014,3.6203846796031174],[-54.01699362608034,3.618887804210304],[-54.0081473470165,3.6198969636171574],[-53.999935532268005,3.62333183676102],[-53.993011792048335,3.6289190331242147],[-53.98792724085788,3.6362138467651457],[-53.98508663358578,3.6446356440885266],[-53.984716139481115,3.6535140718215864],[-53.98684532144208,3.6621424102925615],[-53.991304760493904,3.66983382725338],[-53.99773952149852,3.675976054823012],[-54.005637394545296,3.6800801357133546],[-54.01436966767931,3.6818193555101426],[-54.01611879000522,3.681867762616799]]]}"
00000000000000000020,0.7323293551563955,36.108399258021635,150.15935360125502,407.3354597274588,616.556506414518,0.03977191271126048,0.8705425580700847,24.997529700763398,1.1739278602771432,5.18483293056488,58.081108074249755,"{""type"":""Polygon"",""coordinates"":[[[-54.09915171072143,3.77488461059168],[-54.1079680880103,3.7736310242563817],[-54.11608261052716,3.769970061076581],[-54.12284931347346,3.764193161521771],[-54.1277295560956,3.756760203298403],[-54.130334900906874,3.748262883631586],[-54.13045802385938,3.739377609621407],[-54.12808919806404,3.7308116499003785],[-54.12341704504636,3.7232468358666826],[-54.11681350092134,3.7172852938829917],[-54.108804200209185,3.7134015262581643],[-54.10002663778362,3.7119046521743426],[-54.09117943843623,3.712913810691702],[-54.0829667678029,3.716348681025138],[-54.07604230293268,3.7219358735339294],[-54.07095721562198,3.729230683479222],[-54.068116304076305,3.7376524784189744],[-54.06774576323344,3.746530905824281],[-54.06987516154964,3.755159246125722],[-54.07433506446168,3.762850666504042],[-54.08077050082755,3.76899289801172],[-54.088669206896064,3.7730969821316602],[-54.097402403346294,3.7748362034416756],[-54.09915171072143,3.77488461059168]]]}"
00000000000000000021,0.7431015273060745,33.058456691567635,125.76418021638682,409.9184958771915,603.0335118892491,0.035728548807654845,0.8671015113960742,25.40125135212833,1.1916297074456588,7.214247763156891,57.91350994418851,"{""type"":""Polygon"",""coordinates"":[[[-54.19514277909895,3.860115868127245],[-54.20396003126031,3.8588622807828172],[-54.212075357386134,3.8552013148905715],[-54.21884272759377,3.849424411766534],[-54.223723447754104,3.841991450231052],[-54.226329043043805,3.8334941285428497],[-54.226452170878346,3.824608854432785],[-54.22408310567,3.816042896564487],[-54.21941048945273,3.8084780857579332],[-54.21280629597183,3.802516547368741],[-54.204796211267286,3.79863278258412],[-54.19601779157404,3.7971359096999686],[-54.18716972832779,3.798145067402122],[-54.178956254284074,3.8015799351598467],[-54.17203110925815,3.807167124136136],[-54.16694551883286,3.8144619306944305],[-54.164104321849415,3.822883723449615],[-54.163733737312704,3.831762150554537],[-54.16586333884178,3.840390492533569],[-54.170323677195114,3.848081916043979],[-54.17675974741243,3.8542241511608184],[-54.184659235212955,3.8583282382406434],[-54.19339329808042,3.8600674609375116],[-54.19514277909895,3.860115868127245]]]}"
00000000000000000022,0.7282423591290793,35.07784703871175,129.8439989798038,404.337448360034,612.4206343515991,0.017829997295489654,0.8721507706454175,25.49868795251601,1.27330535090588,4.249925656752153,57.222201852594615,"{""type"":""Polygon"",""coordinates"":[[[-54.004587554681,3.4963067313787026],[-54.013401209681405,3.4950531483403804],[-54.02151323190544,3.491392194022543],[-54.028277859224595,3.485615306128955],[-54.033156616959,3.4781823587267997],[-54.035761183613715,3.4696850456642014],[-54.03588429250628,3.4607997719804016],[-54.033516212348644,3.4522338062062374],[-54.028845500575194,3.4446689816289613],[-54.02224397609763,3.4387074279014525],[-54.01423711322372,3.4348236509971812],[-54.00546221618615,3.433326772993834],[-53.99661770281756,3.434335934174613],[-53.98840753032668,3.4377708129233353],[-53.98148518078052,3.4433580169733955],[-53.97640165875151,3.4506528379845554],[-53.973561635929414,3.4590746400616093],[-53.973191232113756,3.467953068448284],[-53.97531999935244,3.4765814032687343],[-53.97977854842655,3.4842728134140084],[-53.9862120132077,3.490415033129985],[-53.99410828712769,3.4945191075795368],[-54.00283878763012,3.496258324358495],[-54.004587554681,3.4963067313787026]]]}"
00000000000000000023,0.7260670131727605,35.181842917109776,133.42930288030294,405.55434105409444,631.1246230596818,0.019668048069744478,0.8796259077727429,25.45132020975315,1.3115942055833099,7.37478045983748,57.077151210512675,"{""type"":""Polygon"",""coordinates"":[[[-53.98481144150897,3.4798258938851663],[-53.993624942036774,3.478572311041833],[-54.0017368223976,3.474911357248106],[-54.00850133197084,3.4691344700441813],[-54.013380005499684,3.461701523282011],[-54.01598452806155,3.4532042106099987],[-54.01610763621331,3.4443189369455043],[-54.01373959839968,3.4357529708133487],[-54.00906896840436,3.428188145612507],[-54.00246755848289,3.4222265911904484],[-53.994460833856984,3.418342813737374],[-53.985686087956395,3.4168459355022183],[-53.976841726891,3.4178550968405172],[-53.96863169606408,3.421289976086934],[-53.96170946649492,3.426877180819566],[-53.956626033274134,3.43417200248518],[-53.95378606090888,3.442593804984344],[-53.95341566492246,3.451472233429057],[-53.95554439641438,3.4601005679253514],[-53.96000286872215,3.4677919774654242],[-53.966436221665305,3.473934196484022],[-53.97433235759244,3.478038270361651],[-53.98306270511849,3.4797774868726354],[-53.98481144150897,3.4798258938851663]]]}"
00000000000000000024,0.7075915894649608,33.34965721908642,157.4761250616818,397.8447038760855,599.671433933006,0.01802274480354573,0.8533807189022431,25.783518364358745,1.6029651415749118,7.8668245162282675,55.15094121025322,"{""type"":""Polygon"",""coordinates"":[[[-54.06880752805273,3.3445144724183513],[-54.0776197880946,3.343260891175661],[-54.085730529284156,3.339599941684315],[-54.092494093447954,3.333823060141788],[-54.097372090998036,3.3263901186332125],[-54.09997625974988,3.317892809167501],[-54.10009936220371,3.3090075356614856],[-54.09773166458069,3.30044156659061],[-54.09306169128658,3.2928767362709666],[-54.08646120110017,3.28691517614739],[-54.07845558629978,3.283031394189221],[-54.06968205362785,3.281534514051167],[-54.06083891514692,3.282543676682535],[-54.052630021551074,3.2859785600145064],[-54.045708755213546,3.2915657703503225],[-54.04062603511248,3.2988605973883054],[-54.03778646805951,3.307282403352544],[-54.03741613518241,3.3161608322736766],[-54.03954457988843,3.3247891641089846],[-54.04400243597116,3.3324805686810084],[-54.0504348909666,3.3386227819748604],[-54.05832991881883,3.3427268511576274],[-54.06705903788122,3.344466065468836],[-54.06880752805273,3.3445144724183513]]]}"
00000000000000000025,0.7131636571081894,36.22888283934841,181.9626260436151,398.90115581919787,613.8190146801145,0.01742109655781288,0.8679011051872362,25.40465697251395,1.5307730314294048,9.780737450248317,55.311808547646926,"{""type"":""Polygon"",""coordinates"":[[[-54.06602058989433,3.3614367609161793],[-54.074833002365594,3.360183179473334],[-54.08294388352958,3.35652222944399],[-54.089707563849736,3.3507453471935253],[-54.09458564444025,3.343312405028005],[-54.09718985664034,3.3348150951613555],[-54.09731295976928,3.325929821635522],[-54.09494522032924,3.3173638529321234],[-54.09027516634195,3.3097990232525683],[-54.08367456315987,3.303837463841947],[-54.075668812022315,3.2999536824471254],[-54.06689513031729,3.298456802547023],[-54.05805184165458,3.2994659650166973],[-54.049842808356615,3.302900847837783],[-54.04292142368219,3.30848805747294],[-54.03783861595894,3.315782883839127],[-54.03499899908965,3.32420468937007],[-54.03462865843412,3.3330831182316287],[-54.03675713835243,3.341711450399684],[-54.041215070131805,3.3494028555929463],[-54.04764763544973,3.355545069602657],[-54.05554279945375,3.3596491393724994],[-54.064272069467556,3.361388353958784],[-54.06602058989433,3.3614367609161793]]]}"
00000000000000000026,0.7198513838381831,33.38108161396484,148.5095123650166,395.9166841979006,603.7133218644246,0.019158404069543854,0.8598875068287583,25.646744419547815,1.605411298168459,5.3690663661275595,55.064528465473956,"{""type"":""Polygon"",""coordinates"":[[[-54.06785773952835,3.322053980412144],[-54.0766697984502,3.3208003994351025],[-54.084780354955626,3.3171394506577987],[-54.0915437658656,3.3113625700548606],[-54.096421653859906,3.303929629418194],[-54.099025765297164,3.295432320484615],[-54.09914886687146,3.2865470470049027],[-54.096781224429826,3.2779810774463063],[-54.09211135760411,3.270416246277124],[-54.08551101649857,3.2644546852072978],[-54.077505581569085,3.2605709025014438],[-54.06873224551494,3.259074022047576],[-54.05988930516696,3.260083184893547],[-54.05168059588068,3.263518068903575],[-54.04475948566983,3.2691052801693217],[-54.03967688117788,3.276400108098926],[-54.036837379859506,3.284821914638243],[-54.03646705725612,3.2937003436384424],[-54.03859545551439,3.3023286750321197],[-54.04305321173153,3.310020078779625],[-54.04948552117137,3.316162291123374],[-54.05738036938391,3.3202663595269613],[-54.06610928927666,3.3220055734730862],[-54.06785773952835,3.322053980412144]]]}"
00000000000000000027,0.7178132194611921,35.74897616668729,180.75934066547956,398.9001316849299,593.4818940976543,0.019507972331264584,0.872209075415508,25.17237331916901,1.323671405281024,13.239807579252455,56.63501211771937,"{""type"":""Polygon"",""coordinates"":[[[-54.03070005044998,3.438378549593386],[-54.03951316574423,3.437124967240395],[-54.04762469232413,3.4334640147646636],[-54.054388908272024,3.4276871292950544],[-54.059267371830636,3.4202541841422733],[-54.06187178446323,3.4117568724524783],[-54.06199489079688,3.402871598836531],[-54.059626958600795,3.3943056318041256],[-54.05495653254722,3.3867408050351875],[-54.04835540828927,3.380779248866524],[-54.040349028391766,3.3768954700333578],[-54.03157465935111,3.3753985912152675],[-54.022730678052966,3.376407752949685],[-54.01452100047032,3.3798426334476726],[-54.00759907007947,3.3854298398967857],[-54.00251585832827,3.392724663208174],[-53.99967601180959,3.401146466768832],[-53.999305635375904,3.410024895359493],[-54.00143427775269,3.4186532290406206],[-54.00589255864422,3.4263446370587802],[-54.012325632697745,3.432486854323655],[-54.02022142449786,3.4365909267630568],[-54.028951390522565,3.43833014260016],[-54.03070005044998,3.438378549593386]]]}"
00000000000000000028,0.6221020432296739,33.979656324781104,81.03502799166638,357.222133076144,601.1643439069323,0.03885542918325774,0.8537593887234838,25.21577135090087,1.4316175253987344,7.3298265139261884,55.781336928181595,"{""type"":""Polygon"",""coordinates"":[[[-52.30559870770127,4.660332765875482],[-52.31442513545809,4.65907916904607],[-52.32254889151564,4.6554181776591275],[-52.32932326445392,4.649641240987436],[-52.33420900026492,4.642208248321094],[-52.33681723123862,4.6337109076339],[-52.33694041818403,4.6248256325852966],[-52.334568846718675,4.616259692131208],[-52.3298913720364,4.608694911656912],[-52.32328036176706,4.602733407052627],[-52.31526204297661,4.598849668963229],[-52.306474617498694,4.5973528073547945],[-52.297617478619586,4.598361957394808],[-52.289395566012786,4.601796800943342],[-52.28246328004473,4.607383956717452],[-52.27737241138444,4.614678731441012],[-52.274528224554075,4.623100503663054],[-52.274157189224574,4.63197892794434],[-52.276288930759016,4.640607285690973],[-52.28075384366972,4.648298738640133],[-52.287196566796695,4.654441007679958],[-52.29510425558185,4.658545122580193],[-52.30384740558344,4.660284358312334],[-52.30559870770127,4.660332765875482]]]}"
00000000000000000029,0.7408822310987947,36.74413962253433,178.7398064432424,417.92804665981635,638.0435664670149,0.018726542014087147,0.884358483850812,25.380463814601622,1.745714858818945,4.391458511352539,53.807879386167244,"{""type"":""Polygon"",""coordinates"":[[[-54.18218909053871,3.072986431970871],[-54.19099901055758,3.0717328539388604],[-54.199107603145826,3.0680719130775347],[-54.20586938470523,3.062295042891049],[-54.210746108373606,3.05486211192054],[-54.21334961122278,3.0463648088863016],[-54.21347270430866,3.0374795356982203],[-54.2111056492315,3.028913560732671],[-54.20643691464196,3.0213487201453506],[-54.1998381583057,3.0153871485852126],[-54.191834635022815,3.0115033575903563],[-54.18306338836826,3.010006473635307],[-54.17422255350073,3.0110156388604223],[-54.16601580297598,3.0144505303875344],[-54.159096352342694,3.0200377519626715],[-54.15401497717297,3.027332589776961],[-54.15117617535518,3.035754402691681],[-54.15080596282906,3.0446328325684076],[-54.152933868071926,3.05326115906607],[-54.15739056306346,3.0609525536727915],[-54.1638213250863,3.06709475548353],[-54.17171426308339,3.0711988152490073],[-54.180441064839144,3.072938025147756],[-54.18218909053871,3.072986431970871]]]}"
0000000000000000002a,0.6979174904776934,37.44318241499412,173.81961870542426,412.88037650443846,616.713909895784,0.016657525248004283,0.876034609933335,25.30199811802485,1.5092212158170046,7.34951012134552,55.13630415642928,"{""type"":""Polygon"",""coordinates"":[[[-54.20819010878134,3.1689641230452406],[-54.217000833182084,3.167710543878538],[-54.225110164301704,3.1640495999672584],[-54.23187255850184,3.1582727257674064],[-54.236749719860676,3.1508397910726114],[-54.239353451367606,3.1423424857654045],[-54.239476547449726,3.1334572124649545],[-54.237109271364936,3.124891239582652],[-54.23244011098437,3.1173264026240575],[-54.22584075881899,3.1113648351057472],[-54.21783651690741,3.107481047304574],[-54.20906448485533,3.105984164698502],[-54.20022285855017,3.106993329006952],[-54.192015371698496,3.110428217637794],[-54.18509529713072,3.1160154352408096],[-54.18001345968699,3.1233102692466175],[-54.177174394712246,3.1317320797049537],[-54.176804140604105,3.1406105092439685],[-54.1789322310401,3.149238837628027],[-54.183389324938624,3.156930235756614],[-54.18982066877491,3.1630724416256273],[-54.19771432509534,3.1671765047192886],[-54.206441923418076,3.168915716177454],[-54.20819010878134,3.1689641230452406]]]}"
0000000000000000002b,0.7501939622093037,36.55657116343349,160.42937907910536,411.0001961008382,667.1025648811664,0.017641112235977044,0.8829982125056076,25.28239492706627,1.4556777025188394,6.248104923758014,55.93564785933548,"{""type"":""Polygon"",""coordinates"":[[[-54.15591160803075,3.2620879894454045],[-54.164723136671896,3.2608344091775465],[-54.172833206246075,3.257173462306462],[-54.17959621311756,3.251396584211872],[-54.184473812311076,3.2439636459028764],[-54.18707777269992,3.235466338389892],[-54.18720087201848,3.226581064980402],[-54.18483337510763,3.218015094119774],[-54.18016378899682,3.2104502606826455],[-54.173563840912465,3.204488697086688],[-54.165558880144424,3.2006049123847937],[-54.15678606238162,3.1991080310878206],[-54.14794364431756,3.200117194506704],[-54.13973542088927,3.20355208032689],[-54.132814722267774,3.209139294075199],[-54.127732422582376,3.2164341243850982],[-54.12489309461271,3.224855932459654],[-54.12452279915709,3.233734361670931],[-54.126651075019204,3.242362691885622],[-54.131108567988406,3.2500540934319706],[-54.1375404936918,3.256196303239303],[-54.14543486827742,3.260300369562777],[-54.15416326303367,3.2620395825342663],[-54.15591160803075,3.2620879894454045]]]}"
0000000000000000002c,0.7683795625209285,35.009362974752186,161.81280610011012,398.3884487858123,656.9695991018126,0.018760962563515123,0.8809438846355498,25.3969537891014,1.295233651547246,9.99895940377162,56.69107770709222,"{""type"":""Polygon"",""coordinates"":[[[-54.12247280923094,3.3025855452127995],[-54.13128469492778,3.30133196446601],[-54.13939509236677,3.297671016307601],[-54.14615837128498,3.2918941365190504],[-54.15103616492832,3.284461196638112],[-54.153640227011884,3.275963888165758],[-54.153763327839094,3.2670786147088444],[-54.151395732931455,3.258512644727516],[-54.146725957806524,3.250947812821997],[-54.14012574509616,3.24498625093201],[-54.132120465074415,3.241102467578099],[-54.12334729834791,3.2396055868505],[-54.114504528632196,3.240614749882479],[-54.10629597807559,3.2440496344802123],[-54.099375002326966,3.249636846551975],[-54.094292497407224,3.256931675254392],[-54.09145305271118,3.2653534822921566],[-54.09108273896641,3.2742319113608875],[-54.093211097230686,3.282860242371783],[-54.09766876744359,3.2905516454046353],[-54.104100951522916,3.2966938569248834],[-54.111995645014446,3.3007979246531183],[-54.12072439336235,3.302537138282807],[-54.12247280923094,3.3025855452127995]]]}"
0000000000000000002d,0.6834316902109872,20.371090082964944,22.87089881315534,360.1806289320289,520.6741698911651,0.1810720792432545,0.7709705251520299,24.93679580348035,1.8289489064110722,5.081679530441761,52.412104850556865,"{""type"":""Polygon"",""coordinates"":[[[-52.992420665660376,5.390876209663628],[-53.00125699330559,5.389622604156293],[-53.009389847189595,5.385961589444005],[-53.016171782054414,5.380184622079391],[-53.02106293970371,5.372751600931503],[-53.023674026686336,5.364254242862481],[-53.023797288583324,5.355368966955662],[-53.02142301964923,5.346803042434158],[-53.01674030233519,5.3392382897108766],[-53.01012192814716,5.3332768160161725],[-53.002094708858934,5.32939310234992],[-52.99329754575746,5.3278962510574805],[-52.984430593467835,5.32890539408751],[-52.97619955858299,5.332340215487355],[-52.969259557361376,5.337927340885061],[-52.964162991546935,5.345222086483049],[-52.961315584233475,5.353643839919041],[-52.9609440730747,5.362522261616535],[-52.96307813586731,5.371150633788564],[-52.96754799529168,5.378842113671099],[-52.97399790372899,5.3849844137471985],[-52.98191444402317,5.389088554100577],[-52.99066739877507,5.390827801758841],[-52.992420665660376,5.390876209663628]]]}"
0000000000000000002e,0.7509279709041307,37.24702439725671,183.78672750693633,412.2484386446688,620.8516942716626,0.018059677420540585,0.8849350555482335,25.49280253022071,1.5343019547486874,6.561518971125285,55.06195641801964,"{""type"":""Polygon"",""coordinates"":[[[-54.173962049095095,2.968197557214893],[-54.18277111927799,2.9669439804215134],[-54.19087893166516,2.963283042889516],[-54.197640066129914,2.957506177084021],[-54.20251632763901,2.9500732501789484],[-54.20511958922523,2.9415759496258924],[-54.205242679433155,2.932690676560481],[-54.20287585802282,2.9241246993208634],[-54.19820757326812,2.916559854772422],[-54.191609446197695,2.9105982788002156],[-54.18360668172885,2.9067144843191235],[-54.17483626431399,2.905217598891528],[-54.165996265056634,2.906226765117277],[-54.15779029201431,2.909661659805967],[-54.1508715002994,2.9152488857170806],[-54.145790613467476,2.9225437276887165],[-54.142952089815424,2.9309655432848216],[-54.14258192149249,2.9398439735301873],[-54.14470963139457,2.9484722979686495],[-54.14916590521696,2.9561636887308955],[-54.15559605273552,2.9623058861116194],[-54.16348823189957,2.966409942244051],[-54.172214192083686,2.9681491504405413],[-54.173962049095095,2.968197557214893]]]}"
0000000000000000002f,0.7277247840079072,37.46272737993364,179.8849234427634,414.7386502854278,613.80245852779,0.01948329264635763,0.8839633150595476,25.23915318268358,1.5825160270229204,3.658803323904673,55.28181697319263,"{""type"":""Polygon"",""coordinates"":[[[-54.18345101613683,2.8858647153640686],[-54.19225943938412,2.8846111395437184],[-54.20036665789305,2.8809502046271382],[-54.20712729988363,2.875173342263217],[-54.21200320977505,2.8677404185518296],[-54.21460628793944,2.859243119947922],[-54.214729376174155,2.850357846978883],[-54.212362732771176,2.841791867952829],[-54.20769479043941,2.834227020292651],[-54.201097142220135,2.828265440854451],[-54.19309495507649,2.8243816436346734],[-54.18432516851034,2.822884757050287],[-54.17548580494293,2.8238939240621055],[-54.16728042341445,2.827328821234441],[-54.160362133092576,2.8329160505517716],[-54.15528161796239,2.840210895789293],[-54.15244330616799,2.8486327134918117],[-54.15207317170005,2.8575111440267627],[-54.15420073313952,2.866139466847573],[-54.15865668655932,2.873830854589714],[-54.16508636642897,2.8799730484903514],[-54.17297796799482,2.8840771017687747],[-54.181703287540515,2.8858163086280237],[-54.18345101613683,2.8858647153640686]]]}"
00000000000000000030,0.7383569486386153,37.387343535537646,179.89767885486188,411.7456696544724,628.0557829385002,0.019749508205076666,0.8845625239794893,25.489841543081017,1.442079903235549,5.994931361254523,55.9729787159555,"{""type"":""Polygon"",""coordinates"":[[[-54.22343131618202,2.787305204779754],[-54.23223898903145,2.7860516301240192],[-54.24034551874246,2.782390698337823],[-54.24710558964851,2.7766138400931104],[-54.25198109192807,2.7691809202042412],[-54.25458395762207,2.7606836239332693],[-54.254707043827956,2.7517983510795854],[-54.25234060705454,2.7432323699153542],[-54.247673061893046,2.735667518530745],[-54.24107596889584,2.7297059349441026],[-54.23307445102466,2.725822134446392],[-54.22430539570941,2.7243252464774423],[-54.215466768998475,2.7253344144301077],[-54.20726207317322,2.7287693145751173],[-54.20034436418329,2.7343565479693477],[-54.195264280147,2.741651397115802],[-54.19242621421692,2.750073217339477],[-54.192056119263675,2.758951648221025],[-54.19418350878416,2.767579969105666],[-54.19863909081298,2.7752713532330455],[-54.205068228412635,2.781413542968378],[-54.21295916008053,2.785517592830849],[-54.221683736539745,2.787256798089559],[-54.22343131618202,2.787305204779754]]]}"
00000000000000000031,0.7448497871029502,38.30389561373943,191.97005224250506,408.40314509044134,619.971919371327,0.02033913067371578,0.8838759668762883,25.683874596582342,1.5018916883712454,13.032512085778373,55.62524821639268,"{""type"":""Polygon"",""coordinates"":[[[-54.29318949306213,2.6881972247658665],[-54.30199643774259,2.6869436512810303],[-54.31010229912475,2.6832827226421108],[-54.31686181603283,2.6775058685388395],[-54.321736923046,2.670072952493122],[-54.324339582887326,2.6615756585676844],[-54.32446266741929,2.6526903858299855],[-54.322096431329214,2.644124402516043],[-54.31742927155545,2.636559547386899],[-54.310832717094726,2.6305979596294176],[-54.30283184823664,2.626714155836076],[-54.2940635019579,2.625217266475086],[-54.28522558971177,2.626226435373679],[-54.277021558812976,2.6296613385074137],[-54.270104413653925,2.6352485760005533],[-54.26502474788141,2.6425434290770404],[-54.262186920674196,2.650965251835476],[-54.261816864343345,2.659843683065484],[-54.263944087362766,2.6684720020034987],[-54.268399309288604,2.6761633824966027],[-54.27482792087285,2.6823055680441494],[-54.28271820257052,2.6864096144722325],[-54.29144205796365,2.6881488181217676],[-54.29318949306213,2.6881972247658665]]]}"
00000000000000000032,0.7430038310622366,37.069559282388255,187.89093206750036,405.05843337723735,633.1914799847275,0.01991738306825132,0.8866694898569927,25.424098182761437,1.509844593699251,5.760459971427918,55.2015427683679,"{""type"":""Polygon"",""coordinates"":[[[-54.26723306583002,2.7449838766815],[-54.27604042449639,2.7437303025257886],[-54.28414666583528,2.7400693720836133],[-54.29090649768629,2.7342925156074727],[-54.295781829385824,2.7268595973597916],[-54.298384606219415,2.7183623020904624],[-54.29850769166559,2.709477029286308],[-54.29614134145879,2.700911047204059],[-54.291473962582735,2.693346194220374],[-54.28487710197817,2.6873846088526068],[-54.27687586419181,2.683500806947522],[-54.268107114874795,2.6820039183841122],[-54.25926879650568,2.6830130867407287],[-54.25106438763527,2.68644798816205],[-54.24414692195708,2.692035223306688],[-54.23906701839669,2.699330074131433],[-54.236229055450345,2.7077518954375597],[-54.235858977126135,2.716630326467916],[-54.23798629476506,2.7252586465212647],[-54.24244172138384,2.7329500290966546],[-54.24887063199935,2.7390922170436256],[-54.256761283213976,2.7431962654394657],[-54.265485548553784,2.7449354700109896],[-54.26723306583002,2.7449838766815]]]}"
00000000000000000033,0.7461119884421901,36.83819858477916,178.03053246137026,402.91148680708847,626.3493164579595,0.0221492520377481,0.8819901087495932,,,,,"{""type"":""Polygon"",""coordinates"":[[[-54.34367989429029,2.5732059267996035],[-54.35248602727226,2.571952354673081],[-54.360591143745005,2.568291429685191],[-54.36735004332565,2.5625145803862424],[-54.37222471008349,2.5550816687988216],[-54.37482714088004,2.5465843775943564],[-54.37495022392995,2.537699104991218],[-54.37258421177155,2.5291331191834834],[-54.367917481571475,2.521568259710449],[-54.361321527113354,2.5156066671145316],[-54.353321381153044,2.511722859498046],[-54.344553824525875,2.5102259685222013],[-54.335716707967734,2.511235138518131],[-54.32751341766558,2.514670045118977],[-54.32059690065032,2.5202572873671114],[-54.315517701043284,2.52755214500268],[-54.31268014012785,2.535973970701588],[-54.31231012721219,2.544852402335822],[-54.31443716505443,2.55348071901562],[-54.318891985942166,2.561172095292738],[-54.325320011419606,2.5673142759821976],[-54.33320956869655,2.571418318426185],[-54.34193262031936,2.57315752020898],[-54.34367989429029,2.5732059267996035]]]}"
00000000000000000034,0.7554214873808218,37.49303670142554,197.5878235081125,412.10273950951506,627.6349899803228,0.019959538917170977,0.8829457692180999,25.30924732374419,1.8146794450907504,,53.51644154743026,"{""type"":""Polygon"",""coordinates"":[[[-54.32245903237694,2.6283560886286224],[-54.33126555020655,2.62710251585068],[-54.33937101984867,2.6234415891118297],[-54.346130212089726,2.6176647375088233],[-54.351005087535015,2.6102318237832915],[-54.3536076268689,2.601734531273901],[-54.353730710567916,2.592849258606229],[-54.35136459220587,2.584283273994467],[-54.346697658336716,2.576718416604676],[-54.34010141944486,2.5707568263291773],[-54.33210093081847,2.566873020546196],[-54.323332999897104,2.5653761303448044],[-54.31449550618479,2.5663852998144723],[-54.30629186483062,2.5698202047525607],[-54.299375050046784,2.5754074447202924],[-54.2942956294293,2.5827023001694163],[-54.291457942232164,2.591124124458133],[-54.29108790868166,2.60000255589851],[-54.29321503426218,2.608630873661304],[-54.29767004524062,2.616322251960326],[-54.30409834857204,2.622464434979628],[-54.311988249300775,2.6265684793343076],[-54.320711682010796,2.628307682012353],[-54.32245903237694,2.6283560886286224]]]}"
00000000000000000035,0.6720191653856765,39.49520236629052,144.60052220094204,378.6095079188772,581.2607128073256,0.01209348095517631,0.8720525817472442,24.064185540943782,1.3796310443923536,,56.08035621191059,"{""type"":""Polygon"",""coordinates"":[[[-52.5401697186178,3.1954378059995485],[-52.54898066926891,3.194184226519824],[-52.55709020812675,3.190523281767173],[-52.56385277467126,3.184746406460179],[-52.56873005918103,3.177313470737988],[-52.57133385505173,3.1688161648037525],[-52.571456952020924,3.1599308914723054],[-52.56908961379907,3.151364919164697],[-52.56442033365268,3.143800083207136],[-52.557820813861206,3.1378385168038183],[-52.54981636975405,3.1339547298836665],[-52.541044116708285,3.132457847649727],[-52.53220226770885,3.1334670117053034],[-52.523994573678955,3.13690189953717],[-52.51707432357352,3.142489116044423],[-52.51199235609589,3.1497839489996076],[-52.509153217123675,3.1582057587803165],[-52.508782951361496,3.1670841882261667],[-52.51091109393609,3.1757125171306133],[-52.51536830007916,3.1834039162307546],[-52.52179980759219,3.1895461232192988],[-52.52969366596965,3.1936501872310865],[-52.53842148834589,3.195389399119439],[-52.5401697186178,3.1954378059995485]]]}"
00000000000000000036,0.6809526375953953,39.088243693567115,147.67339564689715,378.37308130682106,579.9522930245705,0.013407692205089684,0.8722746113636936,23.789335912699663,1.267727174659751,4.981705009937286,57.29129323608403,"{""type"":""Polygon"",""coordinates"":[[[-52.52800083184293,3.221148982673718],[-52.53681200403967,3.2198954028899727],[-52.544921746319886,3.2162344573201413],[-52.551684481635284,3.2104575809378386],[-52.55656188675166,3.203024644217794],[-52.55916574566747,3.1945273376745593],[-52.55928884352329,3.185642064313007],[-52.55692144446713,3.177076092563567],[-52.55225204704431,3.1695112575782565],[-52.545652363097915,3.163549692257873],[-52.537647720973276,3.1596659061934083],[-52.528875251495556,3.1581690243209017],[-52.52003318439825,3.1591781881308756],[-52.51182528746998,3.1626130751867407],[-52.50490486546,3.168200290629737],[-52.499822770648784,3.175495122564509],[-52.4969835592265,3.1839169316870737],[-52.496613282069596,3.1927953610424384],[-52.49874147571841,3.201423690452309],[-52.503198791789444,3.2091150904960686],[-52.50963045958731,3.2152572985719545],[-52.517524515825244,3.219361363475469],[-52.52625255759635,3.2211005757816387],[-52.52800083184293,3.221148982673718]]]}"
00000000000000000037,0.6744162670207305,38.116371731765234,121.7033254831281,385.50513546924645,572.5472149861687,0.018378217505652307,0.8689787145035137,23.68831477727679,1.2223614588638059,9.602879932948522,57.61950343076776,"{""type"":""Polygon"",""coordinates"":[[[-52.487012774959666,3.213787006834479],[-52.495823883537994,3.2125334271377866],[-52.503933567403635,3.2088724818019454],[-52.51069625425425,3.2030956057275457],[-52.51557362473593,3.1956626692932257],[-52.51817746554592,3.187165362924371],[-52.51830056314533,3.1782800895714383],[-52.515933181557116,3.169714117662173],[-52.51126381781116,3.1621492823984703],[-52.504664181004465,3.1561877167679997],[-52.4966595957446,3.152303930458519],[-52.487887188420224,3.15080704848252],[-52.4790451839547,3.1518162123628195],[-52.47083734529298,3.1552510996408842],[-52.46391697264831,3.1608383153886184],[-52.4588349144022,3.1681331476155736],[-52.45599572378361,3.176554956926591],[-52.455625449897084,3.1854333863078654],[-52.45775362887759,3.194061715573013],[-52.46221091338029,3.201753115346578],[-52.46864253515005,3.207895323111116],[-52.47653653457044,3.211999387759294],[-52.48526451334071,3.2137385999458274],[-52.487012774959666,3.213787006834479]]]}"
00000000000000000038,0.6745591440677869,38.08545406317909,121.44332763647084,385.45998086637223,572.5492743891563,0.01840036538513303,0.8689952375380651,23.688327568431433,1.2223614588638059,9.602879932948522,57.61950343076776,"{""type"":""Polygon"",""coordinates"":[[[-52.486589160359586,3.2139921254829367],[-52.495400270708465,3.21273854578382],[-52.50350995619983,3.2090776004414585],[-52.51027264439924,3.2033007243584812],[-52.51515001584481,3.1958677879161987],[-52.517753857158674,3.1873704815424855],[-52.51787695476521,3.1784852081893136],[-52.51550957269084,3.169919236284502],[-52.51084020800763,3.162354401028554],[-52.504240569889014,3.1563928354067246],[-52.496235983046596,3.1525090491040704],[-52.48746357399248,3.1510121671309546],[-52.4786215677839,3.1520213310092946],[-52.47041372750061,3.1554562182811683],[-52.463493353482086,3.161043434020412],[-52.458411294218344,3.168338266239227],[-52.455572103020764,3.1767600755449927],[-52.455201829043204,3.1856385049255462],[-52.45733000843192,3.1942668341947256],[-52.461787293813174,3.2019582339758195],[-52.46821891686392,3.208100441749031],[-52.47611291786558,3.2122045064043236],[-52.4848408983892,3.21394371859419],[-52.486589160359586,3.2139921254829367]]]}"
00000000000000000039,0.6068574353359355,38.67437824182055,160.1443006620677,362.8117126509419,575.3476822831104,0.019295321932677766,0.86485848022685,23.652174827750315,1.400657245175856,5.267046898603439,56.13170510569819,"{""type"":""Polygon"",""coordinates"":[[[-52.420951192852854,3.2554439288757693],[-52.42976266333827,3.254190348686482],[-52.43787267951211,3.2505294020265865],[-52.444635642076115,3.2447525242098965],[-52.44951320960218,3.2373195861587827],[-52.45211715343191,3.2288222788031855],[-52.45224025250881,3.219937005401476],[-52.44987277156167,3.211371034396596],[-52.44520321623645,3.2038062007082013],[-52.43860331124997,3.1978446368323756],[-52.430598402474644,3.193960851909339],[-52.421825641541965,3.192463970518959],[-52.41298328074565,3.1934731340013154],[-52.404775110592226,3.196908020022048],[-52.397854457104174,3.202495234045401],[-52.392772190845655,3.209790064619012],[-52.38993288188985,3.2182118728636566],[-52.38956258941693,3.227090302098319],[-52.39169085186221,3.23571863218239],[-52.39614831596666,3.243410033484872],[-52.4025801995895,3.2495522430111956],[-52.41047452223422,3.2536563091042146],[-52.41920285939906,3.255395521967725],[-52.420951192852854,3.2554439288757693]]]}"
0000000000000000003a,0.7094208526787753,38.80928791867897,135.2358867619761,374.8332584339427,587.5450416265916,0.018456085200149883,0.8647974244601588,23.976448534729023,1.5762645766152132,,54.54847910369743,"{""type"":""Polygon"",""coordinates"":[[[-52.3986200147772,3.2259291390030116],[-52.40743122835996,3.2246755591627423],[-52.41554100864111,3.221014613440978],[-52.42230377548503,3.215237736858751],[-52.4271812031332,3.2078047999531822],[-52.42978507382834,3.199307493296721],[-52.429908171851714,3.1904222199295713],[-52.42754076143252,3.181856248283908],[-52.42287134210165,3.1742914134793616],[-52.41627162748858,3.1683298483603197],[-52.40826694837025,3.1644460624549464],[-52.399494438458134,3.162949180649639],[-52.39065233061514,3.163958344413949],[-52.382444395781214,3.167393231325538],[-52.37552394165658,3.172980446570665],[-52.370441823058314,3.1802752783157184],[-52.367602598102856,3.1886970873159193],[-52.36723231881918,3.1975755166544606],[-52.369360522011114,3.206203846158301],[-52.37381785861922,3.213895246377501],[-52.38024955636049,3.2200374546555484],[-52.388143649560476,3.2241415197248555],[-52.39687173231591,3.2258807321087075],[-52.3986200147772,3.2259291390030116]]]}"
0000000000000000003b,0.680457620106624,31.888492076271646,40.59976318100113,369.3794314232618,634.0633517815689,0.04217986228540463,0.8424287632061983,,,,,"{""type"":""Polygon"",""coordinates"":[[[-52.17422021336358,4.347214689902511],[-52.18304284354484,4.34596109678686],[-52.191163110304764,4.342300115382128],[-52.19793458409227,4.336523191845686],[-52.20281824263644,4.329090211368292],[-52.205425381085405,4.320592878119904],[-52.20554854204225,4.3117076034387125],[-52.20317800695776,4.303141656166231],[-52.19850254317572,4.295576863815658],[-52.191894355455986,4.289615345983285],[-52.18387944681292,4.285731597441699],[-52.17509575148661,4.2842347314184],[-52.16624237172571,4.285243884458426],[-52.15802395405335,4.288678737485771],[-52.15109462501224,4.294265906259804],[-52.14600594120621,4.301560693447911],[-52.14316299107449,4.309982473709524],[-52.14279214087975,4.318860899096437],[-52.14492299503232,4.327489250669485],[-52.14938601315486,4.335180692092234],[-52.155825981802586,4.341322947849857],[-52.1637302759505,4.345427051857272],[-52.172469664946966,4.347166282485572],[-52.17422021336358,4.347214689902511]]]}"
