system:index,EVI,ch,elevation,ep,gpp,hum,ndvi,rst,sd,slope,tsi,.geo
00000000000000000000,0.8316840556761,19.14860592978536,6.265164991037111,339.54757313815634,426.35457633511186,0.16513839663442564,0.8235707679662578,25.68112486230966,1.253216527941631,4.512978875888631,57.3367349016691,"{""type"":""Polygon"",""coordinates"":[[[118.38469616343988,5.7003690364801445],[118.37585520129633,5.699115427290296],[118.36771808778886,5.69545440267981],[118.36093261134702,5.6896774222905835],[118.35603891303751,5.682244389056553],[118.35342648606479,5.6737470236116385],[118.35330318635916,5.664861747340767],[118.35567871646359,5.656295829580362],[118.36036388820392,5.648731088633254],[118.36698571191033,5.642769628054983],[118.37501710184861,5.6388859247526195],[118.38381882858775,5.637389077837734],[118.39269038009722,5.638398217893104],[118.40092568973856,5.641833029894225],[118.40786930533922,5.647420142401758],[118.41296853875222,5.6547148756402965],[118.41581745238274,5.6631366211043375],[118.41618918372617,5.672015041705264],[118.41405403126632,5.680643419998609],[118.40958185355552,5.688334911310303],[118.40312857964962,5.694477224556707],[118.39520789487122,5.698581375711217],[118.38645035008403,5.700320628430384],[118.38469616343988,5.7003690364801445]]]}"
00000000000000000001,0.8356299039648045,21.583996529733106,8.910063387686433,337.6886085044111,464.5983854617617,0.15684070374547135,0.8356676587668245,25.5832668271569,1.2852699042268718,4.098935946378711,57.09727397681778,"{""type"":""Polygon"",""coordinates"":[[[118.40187262069774,5.6920349766112555],[118.39303178679643,5.69078136752062],[118.38489479116217,5.687120343176811],[118.3781094127311,5.681343363138492],[118.37321578474241,5.673910330230086],[118.37060339486992,5.665412964983892],[118.37048009622973,5.656527688722828],[118.3728555914474,5.647961770780265],[118.37754069526962,5.640397029515884],[118.38416242350814,5.634435568584231],[118.39219369801121,5.630551865002647],[118.40099529843293,5.629055017969822],[118.40986672263968,5.630064158105334],[118.41810191396303,5.633498970359672],[118.42504542953118,5.639086083214492],[118.43014458912455,5.646380816786018],[118.43299346108269,5.6548025624648375],[118.43336518635144,5.66368098309531],[118.43123006406519,5.6723093612237365],[118.42675795052286,5.680000852227507],[118.420304769756,5.686143165119077],[118.412384199666,5.6902473159825835],[118.40362678189118,5.6919865685654],[118.40187262069774,5.6920349766112555]]]}"
00000000000000000002,0.8549656453833255,19.060047600456684,12.81119650361069,338.25642836530596,493.7661232709682,0.1511255381726899,0.8459017655141787,25.348863075751613,1.2422915434649182,0.9556596055626869,57.43187313502801,"{""type"":""Polygon"",""coordinates"":[[[118.32934534206346,5.615039678721406],[118.320505683924,5.613786070547238],[118.31236976897469,5.610125048666796],[118.30558528910684,5.604348071869913],[118.30069230579474,5.596915041969381],[118.29808025601436,5.588417678558819],[118.29795696709323,5.579532402388347],[118.30033214243016,5.570966482763147],[118.30501662356248,5.563401738568032],[118.31163747656312,5.5574402743721],[118.31966769279462,5.553556568211261],[118.32846813519339,5.552059720088997],[118.33733839234522,5.553068860964811],[118.3455724989722,5.556503675558203],[118.35251509745956,5.562090791620992],[118.35761358026332,5.569385528268412],[118.36046207013328,5.577807275931214],[118.36083373966169,5.586685696834596],[118.3586988939618,5.595314073439615],[118.354227368687,5.603005561599017],[118.34777504181437,5.609147871212894],[118.33985552320672,5.613252019388321],[118.3310992699171,5.61499127071163],[118.32934534206346,5.615039678721406]]]}"
00000000000000000003,0.806450407560697,20.302543700417495,18.794749112046105,334.91368774461256,507.55920994615764,0.18507790323960494,0.8368929535187618,25.446842812930782,1.2148174932342537,3.430716860294342,57.73260621879326,"{""type"":""Polygon"",""coordinates"":[[[118.2915366242313,5.563755557505724],[118.28269774020033,5.562501949941852],[118.27456253675112,5.558840929701819],[118.26777864845893,5.55306395506348],[118.2628860895494,5.5456309271659565],[118.26027426362766,5.5371335649777835],[118.26015098105609,5.528248288867645],[118.26252594575789,5.519682368121941],[118.267210016921,5.512117621975186],[118.27383029371468,5.506156155605495],[118.28185981326455,5.502272447727071],[118.29065949332637,5.5007755988793265],[118.29952898219659,5.501784740248123],[118.30776237474929,5.505219556399145],[118.31470436948783,5.510806674598196],[118.31980240671083,5.518101413293921],[118.32265064499452,5.526523162277899],[118.3230222777775,5.535401583363013],[118.32088761412454,5.544029958953563],[118.31641647611066,5.551721445218833],[118.3099647114005,5.557863752650023],[118.30204588506312,5.561967899035401],[118.29329039845622,5.563707149519976],[118.2915366242313,5.563755557505724]]]}"
00000000000000000004,0.8327271795639085,18.04597165313746,13.426867169482216,331.76199645412146,532.4638222705157,0.18546042853133826,0.8545335099347713,25.289007565788953,1.2104787658330332,2.716217525800069,57.729260163671434,"{""type"":""Polygon"",""coordinates"":[[[118.17385202922875,5.484610972908112],[118.16501432568693,5.483357366285876],[118.15688020723375,5.479696348576854],[118.1500972210293,5.473919377268964],[118.14520530924722,5.466486352461923],[118.14259382461628,5.4579889921598],[118.14247055164927,5.449103716142753],[118.14484519509317,5.440537793668206],[118.14952864107181,5.4329730445102316],[118.15614803923285,5.42701157478661],[118.16417649648217,5.423127864258092],[118.17297501415302,5.421631014290987],[118.18184333156987,5.422640156420417],[118.19007563530698,5.426074974974737],[118.19701670942362,5.431662096469862],[118.20211406716714,5.438956838325953],[118.20496192175261,5.447378589348395],[118.20533349842611,5.456257010713904],[118.20319911230216,5.464885384739205],[118.19872856477181,5.472576868081989],[118.19227765728951,5.478719172145473],[118.18435988661861,5.482823315768952],[118.17560556917456,5.484562564959434],[118.17385202922875,5.484610972908112]]]}"
00000000000000000005,0.822029053214862,20.11100016356273,13.98542575519341,347.04366042499606,494.1735717308495,0.15208880993606005,0.8340556471897589,25.168417353456462,1.189362970643019,7.256345163692128,57.90722531076173,"{""type"":""Polygon"",""coordinates"":[[[118.07298716339982,5.445460065658859],[118.0641500374676,5.444206459502334],[118.05601644989181,5.440545443045095],[118.04923390505557,5.434768473384372],[118.04434230987829,5.427335450105813],[118.04173099220081,5.41883809073649],[118.04160772389774,5.409952814765487],[118.04398221013007,5.401386891435895],[118.04866535020999,5.393822140788638],[118.05528431848752,5.387860669406234],[118.06331225600886,5.383976957567037],[118.07211020499213,5.38248010704632],[118.08097794928851,5.383489249551944],[118.08920972032759,5.386924069294882],[118.09615034402063,5.392511192420175],[118.10124736930418,5.3998059358393125],[118.1040950361302,5.408227687869932],[118.10446658531599,5.417106109374117],[118.10233233494688,5.425734482625279],[118.09786207630373,5.433425964522662],[118.09141158823726,5.439568266920556],[118.08349433409062,5.443672409178065],[118.07474058871331,5.445411657728514],[118.07298716339982,5.445460065658859]]]}"
00000000000000000006,0.7639963027194601,22.245505953254487,21.791507240120804,359.16742013910755,505.7584941702542,0.1536867962715237,0.8337869336502187,24.75588280975211,1.1734144686375252,4.466460324823856,58.00550095712388,"{""type"":""Polygon"",""coordinates"":[[[117.91988392872975,5.470587100095026],[117.91104643257091,5.469333493639614],[117.90291250472279,5.465672476379],[117.89612967698727,5.4598955056611524],[117.89123787888043,5.452462481401637],[117.88862645419489,5.443965121433657],[117.88850318290515,5.435079845433103],[117.89087776990598,5.426513922652266],[117.8955611060556,5.418949172960806],[117.90218034987049,5.412987702642985],[117.91020862051438,5.409103991644961],[117.91900693400045,5.407607141479544],[117.92787504564079,5.408616283743732],[117.93610715811549,5.412051102723835],[117.94304807051094,5.417638224802909],[117.94814530888861,5.424932967218908],[117.95099309606285,5.433354718602494],[117.95136466286988,5.442233140017679],[117.94923032548988,5.4508615137656715],[117.94475988168327,5.458552996590691],[117.93830912478842,5.464695300057535],[117.93039153956941,5.468799443191704],[117.92163742751838,5.470538692152915],[117.91988392872975,5.470587100095026]]]}"
00000000000000000007,0.7619406064000506,21.85356844824659,18.1395382097225,354.0940693938822,518.4129889586574,0.16392720915964823,0.8301651008702118,24.512538127150375,1.2333608182464024,3.8363092690706253,57.28341639816073,"{""type"":""Polygon"",""coordinates"":[[[117.8444225616023,5.509550725100035],[117.83558448792277,5.508297118181101],[117.82745002927572,5.50463609967459],[117.8206667602312,5.498859127317315],[117.81577464555444,5.4914261015365025],[117.81316305392451,5.482928740640107],[117.81303977795643,5.474043464593729],[117.81541452213561,5.465477542663917],[117.82009816413775,5.457912794454742],[117.82671783778214,5.451951325787902],[117.83474662809633,5.448067616094397],[117.84354551021079,5.446570766479988],[117.8524141949123,5.447579908369752],[117.86064684002686,5.4510147261668225],[117.86758820279094,5.456601846623394],[117.87268577358047,5.463896587483691],[117.87553374847796,5.47231833786384],[117.8759053427542,5.4811967591410005],[117.87377086962357,5.489825133659492],[117.86930013695952,5.497516617923115],[117.86284896070357,5.503658923047723],[117.8549308590356,5.507763067541442],[117.84617617500545,5.5095023171396775],[117.8444225616023,5.509550725100035]]]}"
00000000000000000008,0.8184531778165913,19.21870670487878,23.123843804678565,386.3822851919892,506.14918256880634,0.152408134108088,0.8282910321167848,24.548772819536897,1.1828419314658605,3.653447355542864,57.97699683586991,"{""type"":""Polygon"",""coordinates"":[[[117.74219321085098,5.454298003946788],[117.73335595489617,5.453044397685139],[117.7252222478179,5.449383380945336],[117.71843960362884,5.443606410912801],[117.71354793718426,5.43617338728922],[117.71093658192704,5.427676027709336],[117.7108133125762,5.418790751727939],[117.71318783419882,5.410224828591355],[117.71787104313782,5.402660078280271],[117.72449010818245,5.396698607272302],[117.73251816269388,5.392814895728964],[117.74131623968746,5.391318045333214],[117.75018411299189,5.39232718775392],[117.7584160039405,5.395762007228553],[117.76535672902398,5.40134912998587],[117.7704538291454,5.408643873052181],[117.77330153823794,5.417065624855227],[117.77367309361331,5.425944046328109],[117.77153881268742,5.434572419754016],[117.76706848901645,5.44226390197767],[117.76061790653893,5.448406204751535],[117.75270053612086,5.452510347317381],[117.74394666196875,5.454249596012307],[117.74219321085098,5.454298003946788]]]}"
00000000000000000009,0.8133737113605791,19.764246534166915,21.06629303618807,388.0457796367602,508.84417959983716,0.15351891327803724,0.8267775639550771,24.592864261685207,1.168337198500952,3.653447355542864,58.037244717922704,"{""type"":""Polygon"",""coordinates"":[[[117.73794368754706,5.472789896015427],[117.7291061588493,5.471536289533813],[117.7209722010948,5.467875272202768],[117.71418934849521,5.462098301392239],[117.70929753255261,5.454665277046724],[117.70668609846172,5.44616791702626],[117.706562826909,5.437282641023114],[117.708937422766,5.428716718290388],[117.71362077614806,5.421151968682724],[117.7202400441801,5.415190498458233],[117.72826834410259,5.411306787533956],[117.73706668962538,5.409809937399689],[117.74593483355223,5.410819079642711],[117.75416697603616,5.414253898555934],[117.7611079138059,5.419841020543287],[117.76620517091236,5.427135762871339],[117.7690529686637,5.4355575141982],[117.76942453701896,5.444435935605582],[117.76729019199112,5.453064309397132],[117.76281973191021,5.460755792303478],[117.75636895138791,5.466898095864037],[117.74845133707107,5.471002239075062],[117.73969719279337,5.472741488072286],[117.73794368754706,5.472789896015427]]]}"
0000000000000000000a,0.7788005006390352,16.852510053272763,21.033068692317137,361.5424643383951,470.9674153386098,0.15943886316989062,0.8168115984908227,24.62566390735421,1.2248058277183371,4.797430085284369,57.50127584128047,"{""type"":""Polygon"",""coordinates"":[[[117.9272146908616,5.434330149429458],[117.9183777283667,5.433076543405315],[117.91024429100416,5.429415527303906],[117.90346187105263,5.4236385581114055],[117.89857036545611,5.416205535267332],[117.89595909501408,5.407708176163166],[117.89583582802636,5.39882290020525],[117.8982102697724,5.390256976632604],[117.90289332329708,5.382692225562004],[117.90951216994065,5.3767307537080775],[117.91753996040893,5.372847041496308],[117.92633774848758,5.371350190818222],[117.93520533062518,5.372359333430783],[117.94343695094175,5.375794153511597],[117.95037744718948,5.381381277100279],[117.95547437840287,5.388676020963726],[117.95832199209937,5.3970977732809295],[117.95869353350328,5.405976194824533],[117.95655932154182,5.414604567855638],[117.95208914463639,5.422296049342156],[117.9456387752428,5.42843835126659],[117.93772166724781,5.432542493135809],[117.92896808373936,5.434281741504326],[117.9272146908616,5.434330149429458]]]}"
0000000000000000000b,0.7947954720205412,18.325065416537754,14.87851556311222,358.4425144754976,473.6469368724332,0.16738771232161054,0.8405223174209043,25.396781616292763,1.2871643531971506,4.842296324670315,57.26859562824488,"{""type"":""Polygon"",""coordinates"":[[[118.25244814439681,5.492347513235841],[118.24361032621734,5.491093906521569],[118.23547610240084,5.487432888565166],[118.22869302859677,5.481655916931758],[118.22380105397586,5.474222891822653],[118.22118953620674,5.465725531336186],[118.2210662623113,5.4568402553100395],[118.22344093695517,5.448274333004471],[118.22812444364538,5.440709584140813],[118.23474392712724,5.434748114745005],[118.24277248753063,5.430864404475509],[118.25157111807367,5.42936755461781],[118.26043954924256,5.430376696672896],[118.2686719587082,5.433811514992317],[118.27561312222264,5.439398636165284],[118.28071054594977,5.446693377712477],[118.2835584377983,5.455115128535679],[118.28393001992464,5.463993549873783],[118.28179560685443,5.472621924052072],[118.27732500198617,5.480313407680501],[118.27087401126096,5.486455712073146],[118.26295613807521,5.490559855966574],[118.25420170709356,5.49229910528354],[118.25244814439681,5.492347513235841]]]}"
0000000000000000000c,0.7652646853763592,16.542128875745046,6.103454868256526,340.4072440822426,397.6821698729042,0.1581567135268359,0.8094028750701714,25.749474105383992,1.2612942685865056,3.078559091457954,57.33458089089367,"{""type"":""Polygon"",""coordinates"":[[[118.35781224318866,5.722651164444214],[118.34897093723691,5.721397554989088],[118.34083350771868,5.717736529665571],[118.33404776851404,5.711959548338098],[118.32915388167483,5.704526514233427],[118.32654135523342,5.696029148257184],[118.32641805266645,5.687143871960089],[118.32879367629671,5.678577954686731],[118.33347903012088,5.671013214587935],[118.34010110977401,5.665051754954523],[118.34813280919327,5.661168052398734],[118.35693487458987,5.659671205799191],[118.36580676739861,5.660680345640278],[118.37404239424993,5.664115156964349],[118.38098627803548,5.6697022685433245],[118.38608570935456,5.676997000891534],[118.38893473470337,5.685418745781302],[118.3893064823277,5.694297166303234],[118.38717124896898,5.702925545037535],[118.38269889922225,5.7106170371725415],[118.37624537561389,5.716759351367686],[118.36832438336275,5.72086350330027],[118.35956649806425,5.722602756384008],[118.35781224318866,5.722651164444214]]]}"
0000000000000000000d,0.7730174770442482,24.659113307977023,17.679568493078857,352.1204577977135,506.6511923468906,0.15411160069625982,0.8532655430384832,24.786497280848817,1.1627001611586958,4.889125461379687,58.042147417004685,"{""type"":""Polygon"",""coordinates"":[[[117.90656905298417,5.526557736517878],[117.89773072592082,5.525304129396605],[117.8895960343872,5.5216431103462265],[117.88281257171668,5.515866137273303],[117.87792031813996,5.508433110828404],[117.87530865325608,5.499935749526733],[117.87518537522807,5.49105047346035],[117.87756018836397,5.482484551902035],[117.88224396455755,5.474919804339912],[117.88886382679308,5.468958336393768],[117.89689284512038,5.465074627269717],[117.90569197673102,5.463577777895839],[117.91456091287385,5.464586919622158],[117.92279379169264,5.468021736902804],[117.92973535206035,5.473608856651113],[117.93483306869511,5.480903596832307],[117.93768112595156,5.489325346774429],[117.93805273227277,5.498203767991337],[117.93591819957425,5.5068321428461715],[117.93144734016856,5.514523627737782],[117.9249959799156,5.520665933586045],[117.91707765165656,5.524770078673244],[117.90832271667375,5.526509328549554],[117.90656905298417,5.526557736517878]]]}"
0000000000000000000e,0.755549123867088,19.382650527320358,17.99347388251485,369.14908396408225,480.1710054726799,0.17829581007788997,0.8180451575594584,24.26857679412092,1.2108596481463032,5.178413541877971,57.48132490296659,"{""type"":""Polygon"",""coordinates"":[[[117.81128698167413,5.530816178023919],[117.80244859104101,5.529562570851979],[117.79431384107983,5.525901551665417],[117.78753032983141,5.520124578413292],[117.78263804140634,5.512691551802106],[117.78002635814349,5.504194190398953],[117.77990307959793,5.495308914327559],[117.78227791003356,5.486742992862268],[117.78696171989358,5.47917824546217],[117.79358162944405,5.473216777696488],[117.80161070497705,5.46933306871503],[117.81040989918348,5.467836219401381],[117.8192788984101,5.468845361086772],[117.8275118358625,5.4722801782381065],[117.83445344580632,5.477867297809064],[117.83955119903136,5.485162037820211],[117.84239927694998,5.493583787652649],[117.84277088629244,5.50246220885447],[117.84063633864854,5.511090583793526],[117.83616544744478,5.518782068842385],[117.8297140410296,5.524924374871851],[117.82179565592243,5.529028520107659],[117.81304065797973,5.5307677700535995],[117.81128698167413,5.530816178023919]]]}"
0000000000000000000f,0.8304548695443492,21.32801109070659,15.461902753765438,336.7387045160456,459.48213548615286,0.1512956179658243,0.8408331144272656,25.380392459596344,1.2296002512223296,4.6606200979306145,57.59383923192384,"{""type"":""Polygon"",""coordinates"":[[[118.25572558367108,5.5157265800590585],[118.24688741807056,5.51447297306665],[118.23875287493846,5.5108119543626435],[118.23196953565179,5.505034981745496],[118.22707737058622,5.4976019557235345],[118.22446575238224,5.489104594679971],[118.22434247566741,5.480219318626329],[118.22671724486258,5.471653396831418],[118.23140093554582,5.4640886488572065],[118.23802067760573,5.458127180452073],[118.24604955063633,5.454243470965355],[118.2548485232605,5.452746621438289],[118.26371729917736,5.453755763268701],[118.27195002907291,5.457190580878241],[118.27889146352192,5.462777701077623],[118.28398908722016,5.470072441691319],[118.2868370919956,5.478494191912406],[118.2872086906419,5.487372613167688],[118.28507419590218,5.496000987808316],[118.28060341726008,5.50369247229998],[118.27415217425516,5.509834777687367],[118.26623399038601,5.513938922396597],[118.25747921531683,5.515678172095808],[118.25572558367108,5.5157265800590585]]]}"
00000000000000000010,0.7677736250794569,20.84913343769262,17.833855067694827,351.03659549384395,499.2835607689014,0.15344019749884102,0.8206834816757574,24.508253521590728,1.2284090081494687,5.066401444632431,57.42575019061574,"{""type"":""Polygon"",""coordinates"":[[[117.96320409546395,5.447141146756007],[117.95436694481639,5.445887540579487],[117.94623333452498,5.442226524068502],[117.9394507708033,5.436449554337056],[117.93455916207927,5.429016530992872],[117.9319478372585,5.420519171583498],[117.93182456875638,5.4116338956105166],[117.93419906171592,5.403067972317637],[117.93888221488491,5.395503221734323],[117.94550120155637,5.389541750423141],[117.95352916131564,5.385658038640219],[117.9623271346316,5.3841611881432705],[117.9711949034503,5.385170330632744],[117.97942669728225,5.388605150324648],[117.98636734024801,5.3941922733799474],[117.99146437975713,5.401487016731974],[117.99431205461742,5.409908768719306],[117.99468360497983,5.418787190217537],[117.99254934880244,5.4274155635019365],[117.98807907779856,5.435107045461381],[117.98162857178603,5.441249347930788],[117.97371129553794,5.445353490246945],[117.96495752568246,5.4470927388248755],[117.96320409546395,5.447141146756007]]]}"
00000000000000000011,0.8464557053192246,19.5700052143895,14.734108271058934,345.85839198396604,507.1674418032549,0.1522297192877484,0.8518779051716964,25.330847026863932,1.2596022128285989,2.983718013763428,57.322830882813356,"{""type"":""Polygon"",""coordinates"":[[[118.33577982488359,5.581333333858409],[118.32694067633771,5.580079726085368],[118.31880522976795,5.576418705283111],[118.31202113933536,5.570641729904967],[118.30712843541049,5.5632087013209475],[118.30451653300058,5.554711338713822],[118.30439324826385,5.545826062583004],[118.3067682849429,5.537260142221332],[118.31145249619331,5.52969539674347],[118.31807296987483,5.523733931118799],[118.32610272747606,5.519850223829048],[118.33490266802204,5.5183533752299505],[118.34377241940753,5.519362516429785],[118.35200605595426,5.522797332046956],[118.35894825699108,5.528384449513839],[118.36404644646933,5.535679187507541],[118.3668947707229,5.544100936038709],[118.36726641606612,5.5529793570615364],[118.3651316902122,5.56160773299978],[118.36066041987458,5.569299219914232],[118.35420846307491,5.575441528093501],[118.3462894001882,5.579545675092387],[118.3375336516039,5.581284925864425],[118.33577982488359,5.581333333858409]]]}"
00000000000000000012,0.806307108956975,19.11327908678381,18.14272459652554,340.4433986426899,506.44253982155345,0.186389677946799,0.8309293893187386,25.45631740608465,1.220910793175088,3.34344119892803,57.69031184452322,"{""type"":""Polygon"",""coordinates"":[[[118.28522253713962,5.563875953234168],[118.27638365129978,5.5626223456688635],[118.26824844618803,5.5589613254249794],[118.26146455651352,5.553184350781571],[118.25657199661234,5.5457513228793465],[118.25396017016752,5.537253960688305],[118.25383688758119,5.528368684578026],[118.25621185277518,5.519802763834952],[118.26089592489627,5.512238017692778],[118.26751620303635,5.506276551328189],[118.27554572421407,5.502392843453798],[118.28434540605717,5.500895994607754],[118.29321489672255,5.501905135975394],[118.30144829094375,5.505339952122761],[118.30839028709303,5.5109270703167965],[118.31348832535723,5.518221809007713],[118.3163365642288,5.526643557988589],[118.31670819709768,5.535521979073278],[118.3145735330194,5.5441503546662085],[118.31010239410064,5.551841840935925],[118.30365062807691,5.557984148372239],[118.29573180012193,5.562088294761818],[118.28697631172352,5.563827545248363],[118.28522253713962,5.563875953234168]]]}"
00000000000000000013,0.8306942247981878,19.51549517029695,14.079015629696999,353.80557792826875,494.2726122257718,0.15243995867666843,0.8434202945494241,25.15645977518227,1.1814851606032708,7.427225184440613,57.99233395154575,"{""type"":""Polygon"",""coordinates"":[[[118.08166457404981,5.439600806874631],[118.07282753420026,5.438347200787799],[118.064694025742,5.434686184517885],[118.05791154668285,5.428909215103655],[118.05301999868806,5.421476192053832],[118.05040870588984,5.412978832824098],[118.05028543827979,5.404093556859985],[118.05265990108128,5.395527633402438],[118.05734299557243,5.387962882532314],[118.06396189978503,5.382001410901677],[118.07198975985297,5.37811769886634],[118.08078762408714,5.376620848262776],[118.08965528297381,5.377629990824698],[118.09788697462677,5.38106481074551],[118.10482753119396,5.386651934114752],[118.10992450693064,5.393946677767796],[118.11277214577338,5.402368429949286],[118.11314369086067,5.411246851474224],[118.11100946072118,5.419875224609537],[118.10653924512964,5.427566706290622],[118.10008881956846,5.433709008439263],[118.09217164240013,5.43781315049236],[118.08341798227936,5.43955239894703],[118.08166457404981,5.439600806874631]]]}"
00000000000000000014,0.7498176424933264,17.887332566062327,21.029545429853343,344.2380008269761,504.7358544671516,0.15227756664827302,0.8063597134284386,24.444386555464764,1.2047610721756337,4.547378637573936,57.61039729326475,"{""type"":""Polygon"",""coordinates"":[[[117.98129020933676,5.432278962944871],[117.97245327692545,5.431025356945126],[117.96431986721232,5.427364340909292],[117.95753747024798,5.421587371803079],[117.95264598114025,5.414154349039079],[117.95003471939253,5.405656989983778],[117.94991145264675,5.396771714028274],[117.9522858862041,5.388205790410836],[117.95696892379675,5.380641039262219],[117.96358774805155,5.374679567321394],[117.97161551145237,5.370795855040964],[117.98041326991395,5.369299004333876],[117.98928082220371,5.370308146966144],[117.99751241477738,5.373742967109226],[118.0044528875667,5.379330090783306],[118.00954980146479,5.386624834728635],[118.01239740538178,5.395046587098653],[118.01276894535306,5.403925008649521],[118.01063474046099,5.4125533816400715],[118.00616457860069,5.420244863050871],[117.99971423105083,5.426387164888052],[117.99179714995768,5.430491306685711],[117.9830435962441,5.432230555020699],[117.98129020933676,5.432278962944871]]]}"
00000000000000000015,0.7939815498861137,22.685520855566292,9.647035982452607,341.2681609642604,519.3360435212062,0.1501334857478323,0.8334333986615489,25.78781242935419,1.5215509296558973,3.1190120778399257,55.611682877733,"{""type"":""Polygon"",""coordinates"":[[[118.42893936409219,5.699160620094661],[118.42009842055522,5.697907010919197],[118.41196132414996,5.69424598634738],[118.40517586192848,5.688469006009035],[118.40028217382185,5.681035972822219],[118.39766975223205,5.672538607406119],[118.39754645268107,5.663653331136668],[118.39992197772384,5.65508741334985],[118.40460713960995,5.647522672356739],[118.41122894946491,5.641561211727228],[118.41926032265464,5.637677508384378],[118.42806203106637,5.636180661452393],[118.43693356410542,5.637189801519382],[118.44516885657995,5.640624613557217],[118.45211245766687,5.646211726115108],[118.4572116803694,5.65350645940193],[118.46006058795372,5.661928204897112],[118.46043231841585,5.670806625502324],[118.45829717033394,5.679435003771756],[118.45382500193337,5.6871264950388],[118.447371741541,5.693268808233754],[118.43945107340268,5.697372959346069],[118.43069354704367,5.699112212045466],[118.42893936409219,5.699160620094661]]]}"
00000000000000000016,0.7786053509827379,19.99587892860444,9.795332082661622,337.15617363591184,276.5883193798753,0.15622532532262073,0.8526114397341641,25.735903448655222,1.4494711792694674,4.319364742590831,55.079328949041646,"{""type"":""Polygon"",""coordinates"":[[[118.57851990893003,5.614513504797097],[118.56968025876954,5.6132598966291924],[118.5615443511539,5.609598874765582],[118.55475987738376,5.603821897990847],[118.54986689844628,5.596388868110868],[118.5472548509735,5.5878915047128475],[118.54713156211804,5.579006228542997],[118.549506735284,5.570440308906299],[118.55419121219064,5.56287556469116],[118.56081205925196,5.556914100472921],[118.56884226830223,5.553030394294457],[118.57764270284298,5.551533546164752],[118.58651295207548,5.552542687045623],[118.59474705134195,5.555977501654997],[118.6016896436061,5.561564617739708],[118.60678812181705,5.5688593544081435],[118.60963660909397,5.577281102084503],[118.61000827824381,5.586159522989749],[118.60787343442053,5.594787899584359],[118.60340191313759,5.602479387724325],[118.59694959205946,5.608621697315805],[118.5890300805873,5.612725845472867],[118.58027383520013,5.614465096787568],[118.57851990893003,5.614513504797097]]]}"
00000000000000000017,0.7597365970189194,16.90173758882872,9.206951440338752,336.3329360252103,198.36645784962636,0.13616268412445431,0.8685448893410277,25.630131637367455,1.5750366810478205,3.5560988562447684,54.11625929703335,"{""type"":""Polygon"",""coordinates"":[[[118.52779317534602,5.56240444988653],[118.51895431161181,5.561150842338736],[118.51081912681764,5.557489822141917],[118.50403525403595,5.551712847560437],[118.49914270625354,5.544279819715682],[118.49653088620067,5.53578245755971],[118.49640760379505,5.526897181451162],[118.49878256297377,5.5183312606759385],[118.50346662338772,5.510766514477772],[118.51008688507402,5.504805048050817],[118.51811638635799,5.500921340127148],[118.52691604643276,5.499424491260291],[118.53578551516004,5.500433632642074],[118.54401888899095,5.50386844883413],[118.55096086789997,5.509455567089455],[118.55605889344021,5.516750305839139],[118.55890712512718,5.52517205485792],[118.55927875694618,5.534050475947824],[118.55714409806582,5.542678851511647],[118.5526729702052,5.550370337727022],[118.54622122023427,5.556512645100711],[118.53830241204777,5.560616791438934],[118.52954694554288,5.562356041901414],[118.52779317534602,5.56240444988653]]]}"
00000000000000000018,0.8704334478747684,14.598845021155206,8.54635400865146,375.0546260267752,561.225758123285,0.22569245108662034,0.8469170219477906,26.580951987660523,2.523075219242727,1.9844812154769897,49.699699810567836,"{""type"":""Polygon"",""coordinates"":[[[118.27002146164843,5.672370340965558],[118.26118092958505,5.671116732109011],[118.25304421138271,5.667455708394412],[118.24625906363283,5.661678729184038],[118.2413656011513,5.654245697043919],[118.23875329859548,5.645748332266593],[118.2386300024588,5.636863056028668],[118.24100541556268,5.628297137656316],[118.24569035952942,5.62073239564335],[118.25231186307275,5.614770933877917],[118.26034286588718,5.610887229637525],[118.26914416900902,5.60939038232643],[118.27801529359688,5.610399522651035],[118.28625020644704,5.613834335502826],[118.29319348657702,5.619421449177044],[118.29829247242533,5.6267161835342305],[118.30114124629908,5.635137929719812],[118.3015129572663,5.644016350419994],[118.29937790599378,5.652644728159301],[118.29490594347786,5.660336218436548],[118.28845298192557,5.66647853049091],[118.28053268177119,5.670582680667813],[118.27177556293965,5.672321932928917],[118.27002146164843,5.672370340965558]]]}"
